// Jest Snapshot v1, https://goo.gl/fbAQLP

exports[`component::ImageListImage Should match snapshoot 1`] = `
<img
  alt="Alt Text"
  class="mdc-image-list__image"
  src="/path/to/img"
/>
`;

exports[`component::ImageListImage Should match snapshoot asDiv and withContainer 1`] = `
<div
  class="mdc-image-list__image-aspect-container"
>
  <div
    class="mdc-image-list__image"
    style="background-image: url(/path/to/img);"
  />
</div>
`;
