// Jest Snapshot v1, https://goo.gl/fbAQLP

exports[`page::ButtonPage Should match snapshoot 1`] = `
<div
  class="mdc-layout-grid__cell mdc-layout-grid__cell--span-12 mdc-layout-grid__cell--align-bottom"
>
  <h1>
    Button
  </h1>
  <p
    class="mdc-typography--overline"
  >
    Button components are React wrappers of mdc-button component.
  </p>
  <h2
    class="mdc-typography--headline6 section-title"
  >
    Resources
  </h2>
  <ul
    class="mdc-list"
    role="list"
  >
    <a
      class="mdc-theme--primary mdc-list-item"
      href="https://material.io/go/design-buttons"
      tabindex="-1"
      target="_blank"
    >
      Material Design Guidelines
    </a>
    <a
      class="mdc-theme--primary mdc-list-item"
      href="https://material.io/components/web/catalog/buttons/"
      tabindex="-1"
      target="_blank"
    >
      Material Components Web Documentation
    </a>
  </ul>
  <h2
    class="mdc-typography--headline6 section-title"
  >
    Components
  </h2>
  <h3
    class="mdc-typography--subtitle1"
  >
    ButtonLabel
  </h3>
  <h3
    class="mdc-typography--subtitle1"
  >
    Button
  </h3>
  <table
    class="table-props"
  >
    <thead>
      <tr>
        <th>
          Property
        </th>
        <th>
          Type
        </th>
        <th>
          Default
        </th>
        <th>
          Required
        </th>
        <th>
          Description
        </th>
      </tr>
    </thead>
    <tbody>
      <tr>
        <td>
          as
        </td>
        <td>
          Any component
        </td>
        <td>
          button
        </td>
        <td />
        <td>
          Element type that will generate the button
        </td>
      </tr>
      <tr>
        <td>
          outlined
        </td>
        <td>
          boolean
        </td>
        <td>
          false
        </td>
        <td />
        <td>
          Sets the outlined style
        </td>
      </tr>
      <tr>
        <td>
          raised
        </td>
        <td>
          boolean
        </td>
        <td>
          false
        </td>
        <td />
        <td>
          Sets the raised style
        </td>
      </tr>
      <tr>
        <td>
          unelevated
        </td>
        <td>
          boolean
        </td>
        <td>
          false
        </td>
        <td />
        <td>
          Sets unelevated style
        </td>
      </tr>
      <tr>
        <td>
          dense
        </td>
        <td>
          boolean
        </td>
        <td>
          false
        </td>
        <td />
        <td>
          Sets dense style
        </td>
      </tr>
    </tbody>
  </table>
  <h3
    class="mdc-typography--subtitle1"
  >
    ButtonIcon
  </h3>
  <table
    class="table-props"
  >
    <thead>
      <tr>
        <th>
          Property
        </th>
        <th>
          Type
        </th>
        <th>
          Default
        </th>
        <th>
          Required
        </th>
        <th>
          Description
        </th>
      </tr>
    </thead>
    <tbody>
      <tr>
        <td>
          as
        </td>
        <td>
          String: i, svg
        </td>
        <td>
          i
        </td>
        <td />
        <td>
          Element type that will generate the icon
        </td>
      </tr>
    </tbody>
  </table>
  <h2
    class="mdc-typography--headline6 section-title"
  >
    Demos
  </h2>
  <div>
    <div
      class="mdc-form-field"
    >
      <div
        class="mdc-checkbox mdc-checkbox--upgraded"
      >
        <input
          class="mdc-checkbox__native-control"
          id="disabled"
          type="checkbox"
        />
        <div
          class="mdc-checkbox__background"
        >
          <svg
            class="mdc-checkbox__checkmark"
            viewBox="0 0 24 24"
          >
            <path
              class="mdc-checkbox__checkmark-path"
              d="M1.73,12.91 8.1,19.28 22.79,4.59"
              fill="none"
              stroke="white"
            />
          </svg>
          <div
            class="mdc-checkbox__mixedmark"
          />
        </div>
      </div>
      <label
        for="disabled"
      >
        Disable buttons (excluding links)
      </label>
    </div>
  </div>
  <section
    class="button-examples"
  >
    <div
      class="example"
    >
      <h2
        class="mdc-typography--subtitle1"
      />
      <div
        class="mdc-tab-bar mt-tab"
        role="tablist"
      >
        <div
          class="mdc-tab-scroller"
        >
          <div
            class="mdc-tab-scroller__scroll-area mdc-tab-scroller__scroll-area--scroll mdc-tab-scroller--align-center"
            style="margin-bottom: 0px;"
          >
            <div
              class="mdc-tab-scroller__scroll-content"
            >
              <button
                aria-selected="true"
                class="mdc-tab mdc-tab--active mdc-tab--min-width"
                data-tab="mdc-tab-1"
                role="tab"
                tabindex="0"
              >
                <span
                  class="mdc-tab__content"
                >
                  <span
                    class="mdc-tab__text-label"
                  >
                    Example
                  </span>
                </span>
                <span
                  class="mdc-tab__ripple"
                />
                <span
                  class="mdc-tab-indicator mdc-tab-indicator--active mdc-tab-indicator--fade"
                >
                  <span
                    class="mdc-tab-indicator__content mdc-tab-indicator__content--underline"
                  />
                </span>
              </button>
              <button
                aria-selected="false"
                class="mdc-tab mdc-tab--min-width"
                data-tab="mdc-tab-2"
                role="tab"
                tabindex="-1"
              >
                <span
                  class="mdc-tab__content"
                >
                  <span
                    class="mdc-tab__text-label"
                  >
                    Source
                  </span>
                </span>
                <span
                  class="mdc-tab__ripple"
                />
                <span
                  class="mdc-tab-indicator mdc-tab-indicator--fade"
                >
                  <span
                    class="mdc-tab-indicator__content mdc-tab-indicator__content--underline"
                  />
                </span>
              </button>
            </div>
          </div>
        </div>
      </div>
      <section
        class=""
      >
        <section>
          <h3
            class="mdc-typography--subtitle1"
          >
            Text Button
          </h3>
          <button
            class="mdc-button"
          >
            Baseline
          </button>
          <button
            class="mdc-button mdc-button--dense"
          >
            Dense
          </button>
          <button
            class="mdc-button"
          >
            <i
              class="mdc-button__icon material-icons"
            >
              favorite
            </i>
            Icon
          </button>
          <button
            class="mdc-button"
          >
            <svg
              class="mdc-button__icon"
              fill="#000000"
              viewBox="0 0 24 24"
              xmlns="http://www.w3.org/2000/svg"
            >
              <path
                d="M0 0h24v24H0z"
                fill="none"
              />
              <path
                d="M23 12c0-6.07-4.93-11-11-11S1 5.93 1 12s4.93 11 11 11 11-4.93 11-11zM5 17.64C3.75 16.1 3 14.14 3 12c0-2.13.76-4.08 2-5.63v11.27zM17.64 5H6.36C7.9 3.75 9.86 3 12 3s4.1.75 5.64 2zM12 14.53L8.24 7h7.53L12 14.53zM17 9v8h-4l4-8zm-6 8H7V9l4 8zm6.64 2c-1.55 1.25-3.51 2-5.64 2s-4.1-.75-5.64-2h11.28zM21 12c0 2.14-.75 4.1-2 5.64V6.37c1.24 1.55 2 3.5 2 5.63z"
              />
            </svg>
            SVG Icon
          </button>
          <a
            class="mdc-button"
            href="#"
          >
            Link
          </a>
        </section>
        <section>
          <h3
            class="mdc-typography--subtitle1"
          >
            Raised Button
          </h3>
          <button
            class="mdc-button mdc-button--raised"
          >
            Baseline
          </button>
          <button
            class="mdc-button mdc-button--dense mdc-button--raised"
          >
            Dense
          </button>
          <button
            class="mdc-button mdc-button--raised"
          >
            <i
              class="mdc-button__icon material-icons"
            >
              favorite
            </i>
            Icon
          </button>
          <button
            class="mdc-button mdc-button--raised"
          >
            <svg
              class="mdc-button__icon"
              fill="#000000"
              viewBox="0 0 24 24"
              xmlns="http://www.w3.org/2000/svg"
            >
              <path
                d="M0 0h24v24H0z"
                fill="none"
              />
              <path
                d="M23 12c0-6.07-4.93-11-11-11S1 5.93 1 12s4.93 11 11 11 11-4.93 11-11zM5 17.64C3.75 16.1 3 14.14 3 12c0-2.13.76-4.08 2-5.63v11.27zM17.64 5H6.36C7.9 3.75 9.86 3 12 3s4.1.75 5.64 2zM12 14.53L8.24 7h7.53L12 14.53zM17 9v8h-4l4-8zm-6 8H7V9l4 8zm6.64 2c-1.55 1.25-3.51 2-5.64 2s-4.1-.75-5.64-2h11.28zM21 12c0 2.14-.75 4.1-2 5.64V6.37c1.24 1.55 2 3.5 2 5.63z"
              />
            </svg>
            SVG Icon
          </button>
          <a
            class="mdc-button mdc-button--raised"
            href="#"
          >
            Link
          </a>
        </section>
        <section>
          <h3
            class="mdc-typography--subtitle1"
          >
            Unelevated Button
          </h3>
          <button
            class="mdc-button mdc-button--unelevated"
          >
            Baseline
          </button>
          <button
            class="mdc-button mdc-button--dense mdc-button--unelevated"
          >
            Dense
          </button>
          <button
            class="mdc-button mdc-button--unelevated"
          >
            <i
              class="mdc-button__icon material-icons"
            >
              favorite
            </i>
            Icon
          </button>
          <button
            class="mdc-button mdc-button--unelevated"
          >
            <svg
              class="mdc-button__icon"
              fill="#000000"
              viewBox="0 0 24 24"
              xmlns="http://www.w3.org/2000/svg"
            >
              <path
                d="M0 0h24v24H0z"
                fill="none"
              />
              <path
                d="M23 12c0-6.07-4.93-11-11-11S1 5.93 1 12s4.93 11 11 11 11-4.93 11-11zM5 17.64C3.75 16.1 3 14.14 3 12c0-2.13.76-4.08 2-5.63v11.27zM17.64 5H6.36C7.9 3.75 9.86 3 12 3s4.1.75 5.64 2zM12 14.53L8.24 7h7.53L12 14.53zM17 9v8h-4l4-8zm-6 8H7V9l4 8zm6.64 2c-1.55 1.25-3.51 2-5.64 2s-4.1-.75-5.64-2h11.28zM21 12c0 2.14-.75 4.1-2 5.64V6.37c1.24 1.55 2 3.5 2 5.63z"
              />
            </svg>
            SVG Icon
          </button>
          <a
            class="mdc-button mdc-button--unelevated"
            href="#"
          >
            Link
          </a>
        </section>
        <section>
          <h3
            class="mdc-typography--subtitle1"
          >
            Outlined Button
          </h3>
          <button
            class="mdc-button mdc-button--outlined"
          >
            Baseline
          </button>
          <button
            class="mdc-button mdc-button--dense mdc-button--outlined"
          >
            Dense
          </button>
          <button
            class="mdc-button mdc-button--outlined"
          >
            <i
              class="mdc-button__icon material-icons"
            >
              favorite
            </i>
            Icon
          </button>
          <button
            class="mdc-button mdc-button--outlined"
          >
            <svg
              class="mdc-button__icon"
              fill="#000000"
              viewBox="0 0 24 24"
              xmlns="http://www.w3.org/2000/svg"
            >
              <path
                d="M0 0h24v24H0z"
                fill="none"
              />
              <path
                d="M23 12c0-6.07-4.93-11-11-11S1 5.93 1 12s4.93 11 11 11 11-4.93 11-11zM5 17.64C3.75 16.1 3 14.14 3 12c0-2.13.76-4.08 2-5.63v11.27zM17.64 5H6.36C7.9 3.75 9.86 3 12 3s4.1.75 5.64 2zM12 14.53L8.24 7h7.53L12 14.53zM17 9v8h-4l4-8zm-6 8H7V9l4 8zm6.64 2c-1.55 1.25-3.51 2-5.64 2s-4.1-.75-5.64-2h11.28zM21 12c0 2.14-.75 4.1-2 5.64V6.37c1.24 1.55 2 3.5 2 5.63z"
              />
            </svg>
            SVG Icon
          </button>
          <a
            class="mdc-button mdc-button--outlined"
            href="#"
          >
            Link
          </a>
        </section>
        <section>
          <h3
            class="mdc-typography--subtitle1"
          >
            Shaped Button
          </h3>
          <button
            class="mdc-button big-round-corner-button mdc-button--unelevated"
          >
            Baseline
          </button>
          <button
            class="mdc-button big-round-corner-button mdc-button--dense mdc-button--unelevated"
          >
            Dense
          </button>
          <button
            class="mdc-button big-round-corner-button mdc-button--unelevated"
          >
            <i
              class="mdc-button__icon material-icons"
            >
              favorite
            </i>
            Icon
          </button>
          <button
            class="mdc-button big-round-corner-button mdc-button--unelevated"
          >
            <svg
              class="mdc-button__icon"
              fill="#000000"
              viewBox="0 0 24 24"
              xmlns="http://www.w3.org/2000/svg"
            >
              <path
                d="M0 0h24v24H0z"
                fill="none"
              />
              <path
                d="M23 12c0-6.07-4.93-11-11-11S1 5.93 1 12s4.93 11 11 11 11-4.93 11-11zM5 17.64C3.75 16.1 3 14.14 3 12c0-2.13.76-4.08 2-5.63v11.27zM17.64 5H6.36C7.9 3.75 9.86 3 12 3s4.1.75 5.64 2zM12 14.53L8.24 7h7.53L12 14.53zM17 9v8h-4l4-8zm-6 8H7V9l4 8zm6.64 2c-1.55 1.25-3.51 2-5.64 2s-4.1-.75-5.64-2h11.28zM21 12c0 2.14-.75 4.1-2 5.64V6.37c1.24 1.55 2 3.5 2 5.63z"
              />
            </svg>
            SVG Icon
          </button>
          <a
            class="mdc-button big-round-corner-button mdc-button--unelevated"
            href="#"
          >
            Link
          </a>
        </section>
        <section>
          <h3
            class="mdc-typography--subtitle1"
          >
            Different Color Icons/Ink Button
          </h3>
          <button
            class="mdc-button demo-ink-color demo-icon-color mdc-button--unelevated"
          >
            Baseline
          </button>
          <button
            class="mdc-button demo-ink-color demo-icon-color mdc-button--dense mdc-button--unelevated"
          >
            Dense
          </button>
          <button
            class="mdc-button demo-ink-color demo-icon-color mdc-button--unelevated"
          >
            <i
              class="mdc-button__icon material-icons"
            >
              favorite
            </i>
            Icon
          </button>
          <button
            class="mdc-button demo-ink-color demo-icon-color mdc-button--unelevated"
          >
            <svg
              class="mdc-button__icon"
              fill="#000000"
              viewBox="0 0 24 24"
              xmlns="http://www.w3.org/2000/svg"
            >
              <path
                d="M0 0h24v24H0z"
                fill="none"
              />
              <path
                d="M23 12c0-6.07-4.93-11-11-11S1 5.93 1 12s4.93 11 11 11 11-4.93 11-11zM5 17.64C3.75 16.1 3 14.14 3 12c0-2.13.76-4.08 2-5.63v11.27zM17.64 5H6.36C7.9 3.75 9.86 3 12 3s4.1.75 5.64 2zM12 14.53L8.24 7h7.53L12 14.53zM17 9v8h-4l4-8zm-6 8H7V9l4 8zm6.64 2c-1.55 1.25-3.51 2-5.64 2s-4.1-.75-5.64-2h11.28zM21 12c0 2.14-.75 4.1-2 5.64V6.37c1.24 1.55 2 3.5 2 5.63z"
              />
            </svg>
            SVG Icon
          </button>
          <a
            class="mdc-button demo-ink-color demo-icon-color mdc-button--unelevated"
            href="#"
          >
            Link
          </a>
        </section>
      </section>
      <section
        class="hide"
      >
        <pre
          style="color: rgb(57, 58, 52); font-family: \\"Consolas\\", \\"Bitstream Vera Sans Mono\\", \\"Courier New\\", Courier, monospace; direction: ltr; text-align: left; white-space: pre; word-spacing: normal; word-break: normal; font-size: 0.95em; line-height: 1.2em; tab-size: 4; hyphens: none; padding: 1em; margin: .5em 0px; overflow: auto; border: 1px solid #dddddd; background-color: white;"
        >
          <code
            style="color: rgb(57, 58, 52); font-family: \\"Consolas\\", \\"Bitstream Vera Sans Mono\\", \\"Courier New\\", Courier, monospace; direction: ltr; text-align: left; white-space: pre; word-spacing: normal; word-break: normal; font-size: 0.95em; line-height: 1.2em; tab-size: 4; hyphens: none; float: left; padding-right: 10px;"
          >
            <span
              class="react-syntax-highlighter-line-number"
            >
              1

            </span>
            <span
              class="react-syntax-highlighter-line-number"
            >
              2

            </span>
            <span
              class="react-syntax-highlighter-line-number"
            >
              3

            </span>
            <span
              class="react-syntax-highlighter-line-number"
            >
              4

            </span>
            <span
              class="react-syntax-highlighter-line-number"
            >
              5

            </span>
            <span
              class="react-syntax-highlighter-line-number"
            >
              6

            </span>
            <span
              class="react-syntax-highlighter-line-number"
            >
              7

            </span>
            <span
              class="react-syntax-highlighter-line-number"
            >
              8

            </span>
            <span
              class="react-syntax-highlighter-line-number"
            >
              9

            </span>
            <span
              class="react-syntax-highlighter-line-number"
            >
              10

            </span>
            <span
              class="react-syntax-highlighter-line-number"
            >
              11

            </span>
            <span
              class="react-syntax-highlighter-line-number"
            >
              12

            </span>
            <span
              class="react-syntax-highlighter-line-number"
            >
              13

            </span>
            <span
              class="react-syntax-highlighter-line-number"
            >
              14

            </span>
            <span
              class="react-syntax-highlighter-line-number"
            >
              15

            </span>
            <span
              class="react-syntax-highlighter-line-number"
            >
              16

            </span>
            <span
              class="react-syntax-highlighter-line-number"
            >
              17

            </span>
            <span
              class="react-syntax-highlighter-line-number"
            >
              18

            </span>
            <span
              class="react-syntax-highlighter-line-number"
            >
              19

            </span>
            <span
              class="react-syntax-highlighter-line-number"
            >
              20

            </span>
            <span
              class="react-syntax-highlighter-line-number"
            >
              21

            </span>
            <span
              class="react-syntax-highlighter-line-number"
            >
              22

            </span>
            <span
              class="react-syntax-highlighter-line-number"
            >
              23

            </span>
            <span
              class="react-syntax-highlighter-line-number"
            >
              24

            </span>
            <span
              class="react-syntax-highlighter-line-number"
            >
              25

            </span>
            <span
              class="react-syntax-highlighter-line-number"
            >
              26

            </span>
            <span
              class="react-syntax-highlighter-line-number"
            >
              27

            </span>
            <span
              class="react-syntax-highlighter-line-number"
            >
              28

            </span>
            <span
              class="react-syntax-highlighter-line-number"
            >
              29

            </span>
            <span
              class="react-syntax-highlighter-line-number"
            >
              30

            </span>
            <span
              class="react-syntax-highlighter-line-number"
            >
              31

            </span>
            <span
              class="react-syntax-highlighter-line-number"
            >
              32

            </span>
            <span
              class="react-syntax-highlighter-line-number"
            >
              33

            </span>
            <span
              class="react-syntax-highlighter-line-number"
            >
              34

            </span>
            <span
              class="react-syntax-highlighter-line-number"
            >
              35

            </span>
            <span
              class="react-syntax-highlighter-line-number"
            >
              36

            </span>
            <span
              class="react-syntax-highlighter-line-number"
            >
              37

            </span>
            <span
              class="react-syntax-highlighter-line-number"
            >
              38

            </span>
            <span
              class="react-syntax-highlighter-line-number"
            >
              39

            </span>
            <span
              class="react-syntax-highlighter-line-number"
            >
              40

            </span>
            <span
              class="react-syntax-highlighter-line-number"
            >
              41

            </span>
            <span
              class="react-syntax-highlighter-line-number"
            >
              42

            </span>
            <span
              class="react-syntax-highlighter-line-number"
            >
              43

            </span>
            <span
              class="react-syntax-highlighter-line-number"
            >
              44

            </span>
            <span
              class="react-syntax-highlighter-line-number"
            >
              45

            </span>
            <span
              class="react-syntax-highlighter-line-number"
            >
              46

            </span>
            <span
              class="react-syntax-highlighter-line-number"
            >
              47

            </span>
            <span
              class="react-syntax-highlighter-line-number"
            >
              48

            </span>
            <span
              class="react-syntax-highlighter-line-number"
            >
              49

            </span>
            <span
              class="react-syntax-highlighter-line-number"
            >
              50

            </span>
            <span
              class="react-syntax-highlighter-line-number"
            >
              51

            </span>
            <span
              class="react-syntax-highlighter-line-number"
            >
              52

            </span>
            <span
              class="react-syntax-highlighter-line-number"
            >
              53

            </span>
            <span
              class="react-syntax-highlighter-line-number"
            >
              54

            </span>
            <span
              class="react-syntax-highlighter-line-number"
            >
              55

            </span>
            <span
              class="react-syntax-highlighter-line-number"
            >
              56

            </span>
            <span
              class="react-syntax-highlighter-line-number"
            >
              57

            </span>
            <span
              class="react-syntax-highlighter-line-number"
            >
              58

            </span>
            <span
              class="react-syntax-highlighter-line-number"
            >
              59

            </span>
            <span
              class="react-syntax-highlighter-line-number"
            >
              60

            </span>
            <span
              class="react-syntax-highlighter-line-number"
            >
              61

            </span>
            <span
              class="react-syntax-highlighter-line-number"
            >
              62

            </span>
            <span
              class="react-syntax-highlighter-line-number"
            >
              63

            </span>
            <span
              class="react-syntax-highlighter-line-number"
            >
              64

            </span>
            <span
              class="react-syntax-highlighter-line-number"
            >
              65

            </span>
            <span
              class="react-syntax-highlighter-line-number"
            >
              66

            </span>
            <span
              class="react-syntax-highlighter-line-number"
            >
              67

            </span>
            <span
              class="react-syntax-highlighter-line-number"
            >
              68

            </span>
            <span
              class="react-syntax-highlighter-line-number"
            >
              69

            </span>
            <span
              class="react-syntax-highlighter-line-number"
            >
              70

            </span>
            <span
              class="react-syntax-highlighter-line-number"
            >
              71

            </span>
            <span
              class="react-syntax-highlighter-line-number"
            >
              72

            </span>
            <span
              class="react-syntax-highlighter-line-number"
            >
              73

            </span>
            <span
              class="react-syntax-highlighter-line-number"
            >
              74

            </span>
            <span
              class="react-syntax-highlighter-line-number"
            >
              75

            </span>
            <span
              class="react-syntax-highlighter-line-number"
            >
              76

            </span>
            <span
              class="react-syntax-highlighter-line-number"
            >
              77

            </span>
            <span
              class="react-syntax-highlighter-line-number"
            >
              78

            </span>
            <span
              class="react-syntax-highlighter-line-number"
            >
              79

            </span>
            <span
              class="react-syntax-highlighter-line-number"
            >
              80

            </span>
            <span
              class="react-syntax-highlighter-line-number"
            >
              81

            </span>
          </code>
          <code
            style="color: rgb(57, 58, 52); font-family: \\"Consolas\\", \\"Bitstream Vera Sans Mono\\", \\"Courier New\\", Courier, monospace; direction: ltr; text-align: left; white-space: pre; word-spacing: normal; word-break: normal; font-size: 0.95em; line-height: 1.2em; tab-size: 4; hyphens: none;"
          >
            <span
              class="token module"
              style="color: rgb(0, 0, 255);"
            >
              import
            </span>
             
            <span
              class="token maybe-class-name"
            >
              React
            </span>
             
            <span
              class="token module"
              style="color: rgb(0, 0, 255);"
            >
              from
            </span>
             
            <span
              class="token"
              style="color: rgb(163, 21, 21);"
            >
              'react'
            </span>
            <span
              class="token"
              style="color: rgb(57, 58, 52);"
            >
              ;
            </span>
            


            <span
              class="token module"
              style="color: rgb(0, 0, 255);"
            >
              import
            </span>
             
            <span
              class="token maybe-class-name"
            >
              Text
            </span>
             
            <span
              class="token module"
              style="color: rgb(0, 0, 255);"
            >
              from
            </span>
             
            <span
              class="token"
              style="color: rgb(163, 21, 21);"
            >
              'material-toolbox/typography/Text'
            </span>
            <span
              class="token"
              style="color: rgb(57, 58, 52);"
            >
              ;
            </span>
            

            <span
              class="token module"
              style="color: rgb(0, 0, 255);"
            >
              import
            </span>
             
            <span
              class="token maybe-class-name"
            >
              Button
            </span>
             
            <span
              class="token module"
              style="color: rgb(0, 0, 255);"
            >
              from
            </span>
             
            <span
              class="token"
              style="color: rgb(163, 21, 21);"
            >
              'material-toolbox/button'
            </span>
            <span
              class="token"
              style="color: rgb(57, 58, 52);"
            >
              ;
            </span>
            

            <span
              class="token module"
              style="color: rgb(0, 0, 255);"
            >
              import
            </span>
             
            <span
              class="token maybe-class-name"
            >
              ButtonIcon
            </span>
             
            <span
              class="token module"
              style="color: rgb(0, 0, 255);"
            >
              from
            </span>
             
            <span
              class="token"
              style="color: rgb(163, 21, 21);"
            >
              'material-toolbox/button/Icon'
            </span>
            <span
              class="token"
              style="color: rgb(57, 58, 52);"
            >
              ;
            </span>
            


            <span
              class="token"
              style="color: rgb(0, 0, 255);"
            >
              const
            </span>
             
            <span
              class="token function-variable"
              style="color: rgb(57, 58, 52);"
            >
              <span
                class="token maybe-class-name"
              >
                Buttons
              </span>
            </span>
             
            <span
              class="token"
              style="color: rgb(57, 58, 52);"
            >
              =
            </span>
             
            <span
              class="token"
              style="color: rgb(57, 58, 52);"
            >
              (
            </span>
            <span
              class="token parameter"
            >
              <span
                class="token"
                style="color: rgb(57, 58, 52);"
              >
                {
              </span>
              
  title
              <span
                class="token"
                style="color: rgb(57, 58, 52);"
              >
                ,
              </span>
              
  raised
              <span
                class="token"
                style="color: rgb(57, 58, 52);"
              >
                ,
              </span>
              
  unelevated
              <span
                class="token"
                style="color: rgb(57, 58, 52);"
              >
                ,
              </span>
              
  outlined
              <span
                class="token"
                style="color: rgb(57, 58, 52);"
              >
                ,
              </span>
              
  disabled
              <span
                class="token"
                style="color: rgb(57, 58, 52);"
              >
                ,
              </span>
              
  className
              <span
                class="token"
                style="color: rgb(57, 58, 52);"
              >
                ,
              </span>
              

              <span
                class="token"
                style="color: rgb(57, 58, 52);"
              >
                }
              </span>
            </span>
            <span
              class="token"
              style="color: rgb(57, 58, 52);"
            >
              )
            </span>
             
            <span
              class="token arrow"
              style="color: rgb(57, 58, 52);"
            >
              =&gt;
            </span>
             
            <span
              class="token"
              style="color: rgb(57, 58, 52);"
            >
              (
            </span>
            
  
            <span
              class="token"
              style="color: rgb(128, 0, 0);"
            >
              <span
                class="token"
                style="color: rgb(128, 0, 0);"
              >
                <span
                  class="token"
                  style="color: rgb(57, 58, 52);"
                >
                  &lt;
                </span>
                section
              </span>
              <span
                class="token"
                style="color: rgb(57, 58, 52);"
              >
                &gt;
              </span>
            </span>
            <span
              class="token plain-text"
            >
              
    
            </span>
            <span
              class="token"
              style="color: rgb(128, 0, 0);"
            >
              <span
                class="token"
                style="color: rgb(128, 0, 0);"
              >
                <span
                  class="token"
                  style="color: rgb(57, 58, 52);"
                >
                  &lt;
                </span>
                <span
                  class="token"
                  style="color: rgb(43, 145, 175);"
                >
                  Text
                </span>
              </span>
               
              <span
                class="token"
                style="color: rgb(255, 0, 0);"
              >
                text
              </span>
              <span
                class="token"
                style="color: rgb(0, 0, 255);"
              >
                <span
                  class="token"
                  style="color: rgb(57, 58, 52);"
                >
                  =
                </span>
                <span
                  class="token"
                  style="color: rgb(57, 58, 52);"
                >
                  "
                </span>
                subtitle1
                <span
                  class="token"
                  style="color: rgb(57, 58, 52);"
                >
                  "
                </span>
              </span>
               
              <span
                class="token"
                style="color: rgb(255, 0, 0);"
              >
                as
              </span>
              <span
                class="token"
                style="color: rgb(0, 0, 255);"
              >
                <span
                  class="token"
                  style="color: rgb(57, 58, 52);"
                >
                  =
                </span>
                <span
                  class="token"
                  style="color: rgb(57, 58, 52);"
                >
                  "
                </span>
                h3
                <span
                  class="token"
                  style="color: rgb(57, 58, 52);"
                >
                  "
                </span>
              </span>
              <span
                class="token"
                style="color: rgb(57, 58, 52);"
              >
                &gt;
              </span>
            </span>
            <span
              class="token plain-text"
            >
              
      
            </span>
            <span
              class="token"
              style="color: rgb(57, 58, 52);"
            >
              {
            </span>
            title
            <span
              class="token"
              style="color: rgb(57, 58, 52);"
            >
              }
            </span>
            <span
              class="token plain-text"
            >
              
    
            </span>
            <span
              class="token"
              style="color: rgb(128, 0, 0);"
            >
              <span
                class="token"
                style="color: rgb(128, 0, 0);"
              >
                <span
                  class="token"
                  style="color: rgb(57, 58, 52);"
                >
                  &lt;/
                </span>
                <span
                  class="token"
                  style="color: rgb(43, 145, 175);"
                >
                  Text
                </span>
              </span>
              <span
                class="token"
                style="color: rgb(57, 58, 52);"
              >
                &gt;
              </span>
            </span>
            <span
              class="token plain-text"
            >
              
    
            </span>
            <span
              class="token"
              style="color: rgb(128, 0, 0);"
            >
              <span
                class="token"
                style="color: rgb(128, 0, 0);"
              >
                <span
                  class="token"
                  style="color: rgb(57, 58, 52);"
                >
                  &lt;
                </span>
                <span
                  class="token"
                  style="color: rgb(43, 145, 175);"
                >
                  Button
                </span>
              </span>
              
      
              <span
                class="token"
                style="color: rgb(255, 0, 0);"
              >
                className
              </span>
              <span
                class="token script language-javascript"
              >
                <span
                  class="token script-punctuation"
                  style="color: rgb(57, 58, 52);"
                >
                  =
                </span>
                <span
                  class="token"
                  style="color: rgb(57, 58, 52);"
                >
                  {
                </span>
                className
                <span
                  class="token"
                  style="color: rgb(57, 58, 52);"
                >
                  }
                </span>
              </span>
              
      
              <span
                class="token"
                style="color: rgb(255, 0, 0);"
              >
                unelevated
              </span>
              <span
                class="token script language-javascript"
              >
                <span
                  class="token script-punctuation"
                  style="color: rgb(57, 58, 52);"
                >
                  =
                </span>
                <span
                  class="token"
                  style="color: rgb(57, 58, 52);"
                >
                  {
                </span>
                unelevated
                <span
                  class="token"
                  style="color: rgb(57, 58, 52);"
                >
                  }
                </span>
              </span>
              
      
              <span
                class="token"
                style="color: rgb(255, 0, 0);"
              >
                raised
              </span>
              <span
                class="token script language-javascript"
              >
                <span
                  class="token script-punctuation"
                  style="color: rgb(57, 58, 52);"
                >
                  =
                </span>
                <span
                  class="token"
                  style="color: rgb(57, 58, 52);"
                >
                  {
                </span>
                raised
                <span
                  class="token"
                  style="color: rgb(57, 58, 52);"
                >
                  }
                </span>
              </span>
              
      
              <span
                class="token"
                style="color: rgb(255, 0, 0);"
              >
                outlined
              </span>
              <span
                class="token script language-javascript"
              >
                <span
                  class="token script-punctuation"
                  style="color: rgb(57, 58, 52);"
                >
                  =
                </span>
                <span
                  class="token"
                  style="color: rgb(57, 58, 52);"
                >
                  {
                </span>
                outlined
                <span
                  class="token"
                  style="color: rgb(57, 58, 52);"
                >
                  }
                </span>
              </span>
              
      
              <span
                class="token"
                style="color: rgb(255, 0, 0);"
              >
                disabled
              </span>
              <span
                class="token script language-javascript"
              >
                <span
                  class="token script-punctuation"
                  style="color: rgb(57, 58, 52);"
                >
                  =
                </span>
                <span
                  class="token"
                  style="color: rgb(57, 58, 52);"
                >
                  {
                </span>
                disabled
                <span
                  class="token"
                  style="color: rgb(57, 58, 52);"
                >
                  }
                </span>
              </span>
              <span
                class="token"
                style="color: rgb(57, 58, 52);"
              >
                &gt;
              </span>
            </span>
            <span
              class="token plain-text"
            >
              
      Baseline
    
            </span>
            <span
              class="token"
              style="color: rgb(128, 0, 0);"
            >
              <span
                class="token"
                style="color: rgb(128, 0, 0);"
              >
                <span
                  class="token"
                  style="color: rgb(57, 58, 52);"
                >
                  &lt;/
                </span>
                <span
                  class="token"
                  style="color: rgb(43, 145, 175);"
                >
                  Button
                </span>
              </span>
              <span
                class="token"
                style="color: rgb(57, 58, 52);"
              >
                &gt;
              </span>
            </span>
            <span
              class="token plain-text"
            >
              
    
            </span>
            <span
              class="token"
              style="color: rgb(128, 0, 0);"
            >
              <span
                class="token"
                style="color: rgb(128, 0, 0);"
              >
                <span
                  class="token"
                  style="color: rgb(57, 58, 52);"
                >
                  &lt;
                </span>
                <span
                  class="token"
                  style="color: rgb(43, 145, 175);"
                >
                  Button
                </span>
              </span>
              
      
              <span
                class="token"
                style="color: rgb(255, 0, 0);"
              >
                className
              </span>
              <span
                class="token script language-javascript"
              >
                <span
                  class="token script-punctuation"
                  style="color: rgb(57, 58, 52);"
                >
                  =
                </span>
                <span
                  class="token"
                  style="color: rgb(57, 58, 52);"
                >
                  {
                </span>
                className
                <span
                  class="token"
                  style="color: rgb(57, 58, 52);"
                >
                  }
                </span>
              </span>
              
      
              <span
                class="token"
                style="color: rgb(255, 0, 0);"
              >
                unelevated
              </span>
              <span
                class="token script language-javascript"
              >
                <span
                  class="token script-punctuation"
                  style="color: rgb(57, 58, 52);"
                >
                  =
                </span>
                <span
                  class="token"
                  style="color: rgb(57, 58, 52);"
                >
                  {
                </span>
                unelevated
                <span
                  class="token"
                  style="color: rgb(57, 58, 52);"
                >
                  }
                </span>
              </span>
              
      
              <span
                class="token"
                style="color: rgb(255, 0, 0);"
              >
                raised
              </span>
              <span
                class="token script language-javascript"
              >
                <span
                  class="token script-punctuation"
                  style="color: rgb(57, 58, 52);"
                >
                  =
                </span>
                <span
                  class="token"
                  style="color: rgb(57, 58, 52);"
                >
                  {
                </span>
                raised
                <span
                  class="token"
                  style="color: rgb(57, 58, 52);"
                >
                  }
                </span>
              </span>
              
      
              <span
                class="token"
                style="color: rgb(255, 0, 0);"
              >
                outlined
              </span>
              <span
                class="token script language-javascript"
              >
                <span
                  class="token script-punctuation"
                  style="color: rgb(57, 58, 52);"
                >
                  =
                </span>
                <span
                  class="token"
                  style="color: rgb(57, 58, 52);"
                >
                  {
                </span>
                outlined
                <span
                  class="token"
                  style="color: rgb(57, 58, 52);"
                >
                  }
                </span>
              </span>
              
      
              <span
                class="token"
                style="color: rgb(255, 0, 0);"
              >
                disabled
              </span>
              <span
                class="token script language-javascript"
              >
                <span
                  class="token script-punctuation"
                  style="color: rgb(57, 58, 52);"
                >
                  =
                </span>
                <span
                  class="token"
                  style="color: rgb(57, 58, 52);"
                >
                  {
                </span>
                disabled
                <span
                  class="token"
                  style="color: rgb(57, 58, 52);"
                >
                  }
                </span>
              </span>
              
      
              <span
                class="token"
                style="color: rgb(255, 0, 0);"
              >
                dense
              </span>
              <span
                class="token"
                style="color: rgb(57, 58, 52);"
              >
                &gt;
              </span>
            </span>
            <span
              class="token plain-text"
            >
              
      Dense
    
            </span>
            <span
              class="token"
              style="color: rgb(128, 0, 0);"
            >
              <span
                class="token"
                style="color: rgb(128, 0, 0);"
              >
                <span
                  class="token"
                  style="color: rgb(57, 58, 52);"
                >
                  &lt;/
                </span>
                <span
                  class="token"
                  style="color: rgb(43, 145, 175);"
                >
                  Button
                </span>
              </span>
              <span
                class="token"
                style="color: rgb(57, 58, 52);"
              >
                &gt;
              </span>
            </span>
            <span
              class="token plain-text"
            >
              
    
            </span>
            <span
              class="token"
              style="color: rgb(128, 0, 0);"
            >
              <span
                class="token"
                style="color: rgb(128, 0, 0);"
              >
                <span
                  class="token"
                  style="color: rgb(57, 58, 52);"
                >
                  &lt;
                </span>
                <span
                  class="token"
                  style="color: rgb(43, 145, 175);"
                >
                  Button
                </span>
              </span>
              
      
              <span
                class="token"
                style="color: rgb(255, 0, 0);"
              >
                className
              </span>
              <span
                class="token script language-javascript"
              >
                <span
                  class="token script-punctuation"
                  style="color: rgb(57, 58, 52);"
                >
                  =
                </span>
                <span
                  class="token"
                  style="color: rgb(57, 58, 52);"
                >
                  {
                </span>
                className
                <span
                  class="token"
                  style="color: rgb(57, 58, 52);"
                >
                  }
                </span>
              </span>
              
      
              <span
                class="token"
                style="color: rgb(255, 0, 0);"
              >
                unelevated
              </span>
              <span
                class="token script language-javascript"
              >
                <span
                  class="token script-punctuation"
                  style="color: rgb(57, 58, 52);"
                >
                  =
                </span>
                <span
                  class="token"
                  style="color: rgb(57, 58, 52);"
                >
                  {
                </span>
                unelevated
                <span
                  class="token"
                  style="color: rgb(57, 58, 52);"
                >
                  }
                </span>
              </span>
              
      
              <span
                class="token"
                style="color: rgb(255, 0, 0);"
              >
                raised
              </span>
              <span
                class="token script language-javascript"
              >
                <span
                  class="token script-punctuation"
                  style="color: rgb(57, 58, 52);"
                >
                  =
                </span>
                <span
                  class="token"
                  style="color: rgb(57, 58, 52);"
                >
                  {
                </span>
                raised
                <span
                  class="token"
                  style="color: rgb(57, 58, 52);"
                >
                  }
                </span>
              </span>
              
      
              <span
                class="token"
                style="color: rgb(255, 0, 0);"
              >
                outlined
              </span>
              <span
                class="token script language-javascript"
              >
                <span
                  class="token script-punctuation"
                  style="color: rgb(57, 58, 52);"
                >
                  =
                </span>
                <span
                  class="token"
                  style="color: rgb(57, 58, 52);"
                >
                  {
                </span>
                outlined
                <span
                  class="token"
                  style="color: rgb(57, 58, 52);"
                >
                  }
                </span>
              </span>
              
      
              <span
                class="token"
                style="color: rgb(255, 0, 0);"
              >
                disabled
              </span>
              <span
                class="token script language-javascript"
              >
                <span
                  class="token script-punctuation"
                  style="color: rgb(57, 58, 52);"
                >
                  =
                </span>
                <span
                  class="token"
                  style="color: rgb(57, 58, 52);"
                >
                  {
                </span>
                disabled
                <span
                  class="token"
                  style="color: rgb(57, 58, 52);"
                >
                  }
                </span>
              </span>
              <span
                class="token"
                style="color: rgb(57, 58, 52);"
              >
                &gt;
              </span>
            </span>
            <span
              class="token plain-text"
            >
              
      
            </span>
            <span
              class="token"
              style="color: rgb(128, 0, 0);"
            >
              <span
                class="token"
                style="color: rgb(128, 0, 0);"
              >
                <span
                  class="token"
                  style="color: rgb(57, 58, 52);"
                >
                  &lt;
                </span>
                <span
                  class="token"
                  style="color: rgb(43, 145, 175);"
                >
                  ButtonIcon
                </span>
              </span>
               
              <span
                class="token"
                style="color: rgb(255, 0, 0);"
              >
                className
              </span>
              <span
                class="token"
                style="color: rgb(0, 0, 255);"
              >
                <span
                  class="token"
                  style="color: rgb(57, 58, 52);"
                >
                  =
                </span>
                <span
                  class="token"
                  style="color: rgb(57, 58, 52);"
                >
                  "
                </span>
                material-icons
                <span
                  class="token"
                  style="color: rgb(57, 58, 52);"
                >
                  "
                </span>
              </span>
              <span
                class="token"
                style="color: rgb(57, 58, 52);"
              >
                &gt;
              </span>
            </span>
            <span
              class="token plain-text"
            >
              favorite
            </span>
            <span
              class="token"
              style="color: rgb(128, 0, 0);"
            >
              <span
                class="token"
                style="color: rgb(128, 0, 0);"
              >
                <span
                  class="token"
                  style="color: rgb(57, 58, 52);"
                >
                  &lt;/
                </span>
                <span
                  class="token"
                  style="color: rgb(43, 145, 175);"
                >
                  ButtonIcon
                </span>
              </span>
              <span
                class="token"
                style="color: rgb(57, 58, 52);"
              >
                &gt;
              </span>
            </span>
            <span
              class="token plain-text"
            >
              
      Icon
    
            </span>
            <span
              class="token"
              style="color: rgb(128, 0, 0);"
            >
              <span
                class="token"
                style="color: rgb(128, 0, 0);"
              >
                <span
                  class="token"
                  style="color: rgb(57, 58, 52);"
                >
                  &lt;/
                </span>
                <span
                  class="token"
                  style="color: rgb(43, 145, 175);"
                >
                  Button
                </span>
              </span>
              <span
                class="token"
                style="color: rgb(57, 58, 52);"
              >
                &gt;
              </span>
            </span>
            <span
              class="token plain-text"
            >
              
    
            </span>
            <span
              class="token"
              style="color: rgb(128, 0, 0);"
            >
              <span
                class="token"
                style="color: rgb(128, 0, 0);"
              >
                <span
                  class="token"
                  style="color: rgb(57, 58, 52);"
                >
                  &lt;
                </span>
                <span
                  class="token"
                  style="color: rgb(43, 145, 175);"
                >
                  Button
                </span>
              </span>
              
      
              <span
                class="token"
                style="color: rgb(255, 0, 0);"
              >
                className
              </span>
              <span
                class="token script language-javascript"
              >
                <span
                  class="token script-punctuation"
                  style="color: rgb(57, 58, 52);"
                >
                  =
                </span>
                <span
                  class="token"
                  style="color: rgb(57, 58, 52);"
                >
                  {
                </span>
                className
                <span
                  class="token"
                  style="color: rgb(57, 58, 52);"
                >
                  }
                </span>
              </span>
              
      
              <span
                class="token"
                style="color: rgb(255, 0, 0);"
              >
                unelevated
              </span>
              <span
                class="token script language-javascript"
              >
                <span
                  class="token script-punctuation"
                  style="color: rgb(57, 58, 52);"
                >
                  =
                </span>
                <span
                  class="token"
                  style="color: rgb(57, 58, 52);"
                >
                  {
                </span>
                unelevated
                <span
                  class="token"
                  style="color: rgb(57, 58, 52);"
                >
                  }
                </span>
              </span>
              
      
              <span
                class="token"
                style="color: rgb(255, 0, 0);"
              >
                raised
              </span>
              <span
                class="token script language-javascript"
              >
                <span
                  class="token script-punctuation"
                  style="color: rgb(57, 58, 52);"
                >
                  =
                </span>
                <span
                  class="token"
                  style="color: rgb(57, 58, 52);"
                >
                  {
                </span>
                raised
                <span
                  class="token"
                  style="color: rgb(57, 58, 52);"
                >
                  }
                </span>
              </span>
              
      
              <span
                class="token"
                style="color: rgb(255, 0, 0);"
              >
                outlined
              </span>
              <span
                class="token script language-javascript"
              >
                <span
                  class="token script-punctuation"
                  style="color: rgb(57, 58, 52);"
                >
                  =
                </span>
                <span
                  class="token"
                  style="color: rgb(57, 58, 52);"
                >
                  {
                </span>
                outlined
                <span
                  class="token"
                  style="color: rgb(57, 58, 52);"
                >
                  }
                </span>
              </span>
              
      
              <span
                class="token"
                style="color: rgb(255, 0, 0);"
              >
                disabled
              </span>
              <span
                class="token script language-javascript"
              >
                <span
                  class="token script-punctuation"
                  style="color: rgb(57, 58, 52);"
                >
                  =
                </span>
                <span
                  class="token"
                  style="color: rgb(57, 58, 52);"
                >
                  {
                </span>
                disabled
                <span
                  class="token"
                  style="color: rgb(57, 58, 52);"
                >
                  }
                </span>
              </span>
              <span
                class="token"
                style="color: rgb(57, 58, 52);"
              >
                &gt;
              </span>
            </span>
            <span
              class="token plain-text"
            >
              
      
            </span>
            <span
              class="token"
              style="color: rgb(128, 0, 0);"
            >
              <span
                class="token"
                style="color: rgb(128, 0, 0);"
              >
                <span
                  class="token"
                  style="color: rgb(57, 58, 52);"
                >
                  &lt;
                </span>
                <span
                  class="token"
                  style="color: rgb(43, 145, 175);"
                >
                  ButtonIcon
                </span>
              </span>
              
        
              <span
                class="token"
                style="color: rgb(255, 0, 0);"
              >
                as
              </span>
              <span
                class="token"
                style="color: rgb(0, 0, 255);"
              >
                <span
                  class="token"
                  style="color: rgb(57, 58, 52);"
                >
                  =
                </span>
                <span
                  class="token"
                  style="color: rgb(57, 58, 52);"
                >
                  "
                </span>
                svg
                <span
                  class="token"
                  style="color: rgb(57, 58, 52);"
                >
                  "
                </span>
              </span>
              
        
              <span
                class="token"
                style="color: rgb(255, 0, 0);"
              >
                xmlns
              </span>
              <span
                class="token"
                style="color: rgb(0, 0, 255);"
              >
                <span
                  class="token"
                  style="color: rgb(57, 58, 52);"
                >
                  =
                </span>
                <span
                  class="token"
                  style="color: rgb(57, 58, 52);"
                >
                  "
                </span>
                http://www.w3.org/2000/svg
                <span
                  class="token"
                  style="color: rgb(57, 58, 52);"
                >
                  "
                </span>
              </span>
              
        
              <span
                class="token"
                style="color: rgb(255, 0, 0);"
              >
                viewBox
              </span>
              <span
                class="token"
                style="color: rgb(0, 0, 255);"
              >
                <span
                  class="token"
                  style="color: rgb(57, 58, 52);"
                >
                  =
                </span>
                <span
                  class="token"
                  style="color: rgb(57, 58, 52);"
                >
                  "
                </span>
                0 0 24 24
                <span
                  class="token"
                  style="color: rgb(57, 58, 52);"
                >
                  "
                </span>
              </span>
              
        
              <span
                class="token"
                style="color: rgb(255, 0, 0);"
              >
                fill
              </span>
              <span
                class="token"
                style="color: rgb(0, 0, 255);"
              >
                <span
                  class="token"
                  style="color: rgb(57, 58, 52);"
                >
                  =
                </span>
                <span
                  class="token"
                  style="color: rgb(57, 58, 52);"
                >
                  "
                </span>
                #000000
                <span
                  class="token"
                  style="color: rgb(57, 58, 52);"
                >
                  "
                </span>
              </span>
              <span
                class="token"
                style="color: rgb(57, 58, 52);"
              >
                &gt;
              </span>
            </span>
            <span
              class="token plain-text"
            >
              
        
            </span>
            <span
              class="token"
              style="color: rgb(128, 0, 0);"
            >
              <span
                class="token"
                style="color: rgb(128, 0, 0);"
              >
                <span
                  class="token"
                  style="color: rgb(57, 58, 52);"
                >
                  &lt;
                </span>
                path
              </span>
               
              <span
                class="token"
                style="color: rgb(255, 0, 0);"
              >
                fill
              </span>
              <span
                class="token"
                style="color: rgb(0, 0, 255);"
              >
                <span
                  class="token"
                  style="color: rgb(57, 58, 52);"
                >
                  =
                </span>
                <span
                  class="token"
                  style="color: rgb(57, 58, 52);"
                >
                  "
                </span>
                none
                <span
                  class="token"
                  style="color: rgb(57, 58, 52);"
                >
                  "
                </span>
              </span>
               
              <span
                class="token"
                style="color: rgb(255, 0, 0);"
              >
                d
              </span>
              <span
                class="token"
                style="color: rgb(0, 0, 255);"
              >
                <span
                  class="token"
                  style="color: rgb(57, 58, 52);"
                >
                  =
                </span>
                <span
                  class="token"
                  style="color: rgb(57, 58, 52);"
                >
                  "
                </span>
                M0 0h24v24H0z
                <span
                  class="token"
                  style="color: rgb(57, 58, 52);"
                >
                  "
                </span>
              </span>
               
              <span
                class="token"
                style="color: rgb(57, 58, 52);"
              >
                /&gt;
              </span>
            </span>
            <span
              class="token plain-text"
            >
              
        
            </span>
            <span
              class="token"
              style="color: rgb(128, 0, 0);"
            >
              <span
                class="token"
                style="color: rgb(128, 0, 0);"
              >
                <span
                  class="token"
                  style="color: rgb(57, 58, 52);"
                >
                  &lt;
                </span>
                path
              </span>
               
              <span
                class="token"
                style="color: rgb(255, 0, 0);"
              >
                d
              </span>
              <span
                class="token"
                style="color: rgb(0, 0, 255);"
              >
                <span
                  class="token"
                  style="color: rgb(57, 58, 52);"
                >
                  =
                </span>
                <span
                  class="token"
                  style="color: rgb(57, 58, 52);"
                >
                  "
                </span>
                M23 12c0-6.07-4.93-11-11-11S1 5.93 1 12s4.93 11 11 11 11-4.93 11-11zM5 17.64C3.75 16.1 3 14.14 3 12c0-2.13.76-4.08 2-5.63v11.27zM17.64 5H6.36C7.9 3.75 9.86 3 12 3s4.1.75 5.64 2zM12 14.53L8.24 7h7.53L12 14.53zM17 9v8h-4l4-8zm-6 8H7V9l4 8zm6.64 2c-1.55 1.25-3.51 2-5.64 2s-4.1-.75-5.64-2h11.28zM21 12c0 2.14-.75 4.1-2 5.64V6.37c1.24 1.55 2 3.5 2 5.63z
                <span
                  class="token"
                  style="color: rgb(57, 58, 52);"
                >
                  "
                </span>
              </span>
               
              <span
                class="token"
                style="color: rgb(57, 58, 52);"
              >
                /&gt;
              </span>
            </span>
            <span
              class="token plain-text"
            >
              
      
            </span>
            <span
              class="token"
              style="color: rgb(128, 0, 0);"
            >
              <span
                class="token"
                style="color: rgb(128, 0, 0);"
              >
                <span
                  class="token"
                  style="color: rgb(57, 58, 52);"
                >
                  &lt;/
                </span>
                <span
                  class="token"
                  style="color: rgb(43, 145, 175);"
                >
                  ButtonIcon
                </span>
              </span>
              <span
                class="token"
                style="color: rgb(57, 58, 52);"
              >
                &gt;
              </span>
            </span>
            <span
              class="token plain-text"
            >
              
      SVG Icon
    
            </span>
            <span
              class="token"
              style="color: rgb(128, 0, 0);"
            >
              <span
                class="token"
                style="color: rgb(128, 0, 0);"
              >
                <span
                  class="token"
                  style="color: rgb(57, 58, 52);"
                >
                  &lt;/
                </span>
                <span
                  class="token"
                  style="color: rgb(43, 145, 175);"
                >
                  Button
                </span>
              </span>
              <span
                class="token"
                style="color: rgb(57, 58, 52);"
              >
                &gt;
              </span>
            </span>
            <span
              class="token plain-text"
            >
              
    &lt;Button
      className=
            </span>
            <span
              class="token"
              style="color: rgb(57, 58, 52);"
            >
              {
            </span>
            className
            <span
              class="token"
              style="color: rgb(57, 58, 52);"
            >
              }
            </span>
            <span
              class="token plain-text"
            >
              
      outlined=
            </span>
            <span
              class="token"
              style="color: rgb(57, 58, 52);"
            >
              {
            </span>
            outlined
            <span
              class="token"
              style="color: rgb(57, 58, 52);"
            >
              }
            </span>
            <span
              class="token plain-text"
            >
              
      unelevated=
            </span>
            <span
              class="token"
              style="color: rgb(57, 58, 52);"
            >
              {
            </span>
            unelevated
            <span
              class="token"
              style="color: rgb(57, 58, 52);"
            >
              }
            </span>
            <span
              class="token plain-text"
            >
              
      raised=
            </span>
            <span
              class="token"
              style="color: rgb(57, 58, 52);"
            >
              {
            </span>
            raised
            <span
              class="token"
              style="color: rgb(57, 58, 52);"
            >
              }
            </span>
            <span
              class="token plain-text"
            >
              
      as="a"
      href="javascript:void(0)" // eslint-disable-line
    &gt;
      Link
    
            </span>
            <span
              class="token"
              style="color: rgb(128, 0, 0);"
            >
              <span
                class="token"
                style="color: rgb(128, 0, 0);"
              >
                <span
                  class="token"
                  style="color: rgb(57, 58, 52);"
                >
                  &lt;/
                </span>
                <span
                  class="token"
                  style="color: rgb(43, 145, 175);"
                >
                  Button
                </span>
              </span>
              <span
                class="token"
                style="color: rgb(57, 58, 52);"
              >
                &gt;
              </span>
            </span>
            <span
              class="token plain-text"
            >
              
  
            </span>
            <span
              class="token"
              style="color: rgb(128, 0, 0);"
            >
              <span
                class="token"
                style="color: rgb(128, 0, 0);"
              >
                <span
                  class="token"
                  style="color: rgb(57, 58, 52);"
                >
                  &lt;/
                </span>
                section
              </span>
              <span
                class="token"
                style="color: rgb(57, 58, 52);"
              >
                &gt;
              </span>
            </span>
            

            <span
              class="token"
              style="color: rgb(57, 58, 52);"
            >
              )
            </span>
            <span
              class="token"
              style="color: rgb(57, 58, 52);"
            >
              ;
            </span>
            


            <span
              class="token maybe-class-name"
            >
              Buttons
            </span>
            <span
              class="token"
              style="color: rgb(57, 58, 52);"
            >
              .
            </span>
            <span
              class="token property-access"
            >
              defaultProps
            </span>
             
            <span
              class="token"
              style="color: rgb(57, 58, 52);"
            >
              =
            </span>
             
            <span
              class="token"
              style="color: rgb(57, 58, 52);"
            >
              {
            </span>
            
  raised
            <span
              class="token"
              style="color: rgb(57, 58, 52);"
            >
              :
            </span>
             
            <span
              class="token"
              style="color: rgb(54, 172, 170);"
            >
              false
            </span>
            <span
              class="token"
              style="color: rgb(57, 58, 52);"
            >
              ,
            </span>
            
  unelevated
            <span
              class="token"
              style="color: rgb(57, 58, 52);"
            >
              :
            </span>
             
            <span
              class="token"
              style="color: rgb(54, 172, 170);"
            >
              false
            </span>
            <span
              class="token"
              style="color: rgb(57, 58, 52);"
            >
              ,
            </span>
            
  outlined
            <span
              class="token"
              style="color: rgb(57, 58, 52);"
            >
              :
            </span>
             
            <span
              class="token"
              style="color: rgb(54, 172, 170);"
            >
              false
            </span>
            <span
              class="token"
              style="color: rgb(57, 58, 52);"
            >
              ,
            </span>
            
  disabled
            <span
              class="token"
              style="color: rgb(57, 58, 52);"
            >
              :
            </span>
             
            <span
              class="token"
              style="color: rgb(54, 172, 170);"
            >
              false
            </span>
            <span
              class="token"
              style="color: rgb(57, 58, 52);"
            >
              ,
            </span>
            

            <span
              class="token"
              style="color: rgb(57, 58, 52);"
            >
              }
            </span>
            <span
              class="token"
              style="color: rgb(57, 58, 52);"
            >
              ;
            </span>
            


            <span
              class="token module"
              style="color: rgb(0, 0, 255);"
            >
              export
            </span>
             
            <span
              class="token module"
              style="color: rgb(0, 0, 255);"
            >
              default
            </span>
             
            <span
              class="token maybe-class-name"
            >
              Buttons
            </span>
            <span
              class="token"
              style="color: rgb(57, 58, 52);"
            >
              ;
            </span>
          </code>
        </pre>
        <pre
          style="color: rgb(57, 58, 52); font-family: \\"Consolas\\", \\"Bitstream Vera Sans Mono\\", \\"Courier New\\", Courier, monospace; direction: ltr; text-align: left; white-space: pre; word-spacing: normal; word-break: normal; font-size: 0.95em; line-height: 1.2em; tab-size: 4; hyphens: none; padding: 1em; margin: .5em 0px; overflow: auto; border: 1px solid #dddddd; background-color: white;"
        >
          <code
            style="color: rgb(57, 58, 52); font-family: \\"Consolas\\", \\"Bitstream Vera Sans Mono\\", \\"Courier New\\", Courier, monospace; direction: ltr; text-align: left; white-space: pre; word-spacing: normal; word-break: normal; font-size: 0.95em; line-height: 1.2em; tab-size: 4; hyphens: none; float: left; padding-right: 10px;"
          >
            <span
              class="react-syntax-highlighter-line-number"
            >
              1

            </span>
            <span
              class="react-syntax-highlighter-line-number"
            >
              2

            </span>
            <span
              class="react-syntax-highlighter-line-number"
            >
              3

            </span>
            <span
              class="react-syntax-highlighter-line-number"
            >
              4

            </span>
            <span
              class="react-syntax-highlighter-line-number"
            >
              5

            </span>
            <span
              class="react-syntax-highlighter-line-number"
            >
              6

            </span>
            <span
              class="react-syntax-highlighter-line-number"
            >
              7

            </span>
            <span
              class="react-syntax-highlighter-line-number"
            >
              8

            </span>
            <span
              class="react-syntax-highlighter-line-number"
            >
              9

            </span>
            <span
              class="react-syntax-highlighter-line-number"
            >
              10

            </span>
            <span
              class="react-syntax-highlighter-line-number"
            >
              11

            </span>
            <span
              class="react-syntax-highlighter-line-number"
            >
              12

            </span>
            <span
              class="react-syntax-highlighter-line-number"
            >
              13

            </span>
            <span
              class="react-syntax-highlighter-line-number"
            >
              14

            </span>
            <span
              class="react-syntax-highlighter-line-number"
            >
              15

            </span>
            <span
              class="react-syntax-highlighter-line-number"
            >
              16

            </span>
            <span
              class="react-syntax-highlighter-line-number"
            >
              17

            </span>
            <span
              class="react-syntax-highlighter-line-number"
            >
              18

            </span>
            <span
              class="react-syntax-highlighter-line-number"
            >
              19

            </span>
            <span
              class="react-syntax-highlighter-line-number"
            >
              20

            </span>
            <span
              class="react-syntax-highlighter-line-number"
            >
              21

            </span>
          </code>
          <code
            style="color: rgb(57, 58, 52); font-family: \\"Consolas\\", \\"Bitstream Vera Sans Mono\\", \\"Courier New\\", Courier, monospace; direction: ltr; text-align: left; white-space: pre; word-spacing: normal; word-break: normal; font-size: 0.95em; line-height: 1.2em; tab-size: 4; hyphens: none;"
          >
            <span
              class="token"
              style="color: rgb(0, 0, 255);"
            >
              @import
            </span>
             
            <span
              class="token"
              style="color: rgb(163, 21, 21);"
            >
              "@material/button/mdc-button"
            </span>
            <span
              class="token"
              style="color: rgb(57, 58, 52);"
            >
              ;
            </span>
            


            <span
              class="token"
              style="color: rgb(128, 0, 0);"
            >
              .button-examples 
            </span>
            <span
              class="token"
              style="color: rgb(57, 58, 52);"
            >
              {
            </span>
            
  
            <span
              class="token"
              style="color: rgb(128, 0, 0);"
            >
              .mdc-button 
            </span>
            <span
              class="token"
              style="color: rgb(57, 58, 52);"
            >
              {
            </span>
            
    
            <span
              class="token"
              style="color: rgb(255, 0, 0);"
            >
              margin
            </span>
            <span
              class="token"
              style="color: rgb(57, 58, 52);"
            >
              :
            </span>
             
            <span
              class="token"
              style="color: rgb(54, 172, 170);"
            >
              8
            </span>
            <span
              class="token unit"
            >
              px
            </span>
             
            <span
              class="token"
              style="color: rgb(54, 172, 170);"
            >
              16
            </span>
            <span
              class="token unit"
            >
              px
            </span>
            <span
              class="token"
              style="color: rgb(57, 58, 52);"
            >
              ;
            </span>
            
  
            <span
              class="token"
              style="color: rgb(57, 58, 52);"
            >
              }
            </span>
            

  
            <span
              class="token"
              style="color: rgb(128, 0, 0);"
            >
              .demo-ink-color 
            </span>
            <span
              class="token"
              style="color: rgb(57, 58, 52);"
            >
              {
            </span>
            
    
            <span
              class="token"
              style="color: rgb(0, 0, 255);"
            >
              @include
            </span>
             
            <span
              class="token"
              style="color: rgb(57, 58, 52);"
            >
              mdc-button-icon-color
            </span>
            <span
              class="token"
              style="color: rgb(57, 58, 52);"
            >
              (
            </span>
            white
            <span
              class="token"
              style="color: rgb(57, 58, 52);"
            >
              )
            </span>
            <span
              class="token"
              style="color: rgb(57, 58, 52);"
            >
              ;
            </span>
            
    
            <span
              class="token"
              style="color: rgb(0, 0, 255);"
            >
              @include
            </span>
             
            <span
              class="token"
              style="color: rgb(57, 58, 52);"
            >
              mdc-button-ink-color
            </span>
            <span
              class="token"
              style="color: rgb(57, 58, 52);"
            >
              (
            </span>
            orange
            <span
              class="token"
              style="color: rgb(57, 58, 52);"
            >
              )
            </span>
            <span
              class="token"
              style="color: rgb(57, 58, 52);"
            >
              ;
            </span>
            
    
            <span
              class="token"
              style="color: rgb(0, 0, 255);"
            >
              @include
            </span>
             
            <span
              class="token"
              style="color: rgb(57, 58, 52);"
            >
              mdc-states
            </span>
            <span
              class="token"
              style="color: rgb(57, 58, 52);"
            >
              (
            </span>
            orange
            <span
              class="token"
              style="color: rgb(57, 58, 52);"
            >
              )
            </span>
            <span
              class="token"
              style="color: rgb(57, 58, 52);"
            >
              ;
            </span>
            
  
            <span
              class="token"
              style="color: rgb(57, 58, 52);"
            >
              }
            </span>
            

  
            <span
              class="token"
              style="color: rgb(128, 0, 0);"
            >
              .demo-icon-color 
            </span>
            <span
              class="token"
              style="color: rgb(57, 58, 52);"
            >
              {
            </span>
            
    
            <span
              class="token"
              style="color: rgb(0, 0, 255);"
            >
              @include
            </span>
             
            <span
              class="token"
              style="color: rgb(57, 58, 52);"
            >
              mdc-button-icon-color
            </span>
            <span
              class="token"
              style="color: rgb(57, 58, 52);"
            >
              (
            </span>
            orange
            <span
              class="token"
              style="color: rgb(57, 58, 52);"
            >
              )
            </span>
            <span
              class="token"
              style="color: rgb(57, 58, 52);"
            >
              ;
            </span>
            
  
            <span
              class="token"
              style="color: rgb(57, 58, 52);"
            >
              }
            </span>
            

  
            <span
              class="token"
              style="color: rgb(128, 0, 0);"
            >
              .big-round-corner-button 
            </span>
            <span
              class="token"
              style="color: rgb(57, 58, 52);"
            >
              {
            </span>
            
    
            <span
              class="token"
              style="color: rgb(0, 0, 255);"
            >
              @include
            </span>
             
            <span
              class="token"
              style="color: rgb(57, 58, 52);"
            >
              mdc-button-shape-radius
            </span>
            <span
              class="token"
              style="color: rgb(57, 58, 52);"
            >
              (
            </span>
            <span
              class="token"
              style="color: rgb(54, 172, 170);"
            >
              18
            </span>
            <span
              class="token unit"
            >
              px
            </span>
            <span
              class="token"
              style="color: rgb(57, 58, 52);"
            >
              )
            </span>
            <span
              class="token"
              style="color: rgb(57, 58, 52);"
            >
              ;
            </span>
            
  
            <span
              class="token"
              style="color: rgb(57, 58, 52);"
            >
              }
            </span>
            

            <span
              class="token"
              style="color: rgb(57, 58, 52);"
            >
              }
            </span>
          </code>
        </pre>
      </section>
    </div>
  </section>
</div>
`;
