// Jest Snapshot v1, https://goo.gl/fbAQLP

exports[`component::Example Should match snapshoot 1`] = `
<div
  class="example"
>
  <h2
    class="mdc-typography--subtitle1"
  >
    Example title
  </h2>
  <div
    class="mdc-tab-bar mt-tab"
    role="tablist"
  >
    <div
      class="mdc-tab-scroller"
    >
      <div
        class="mdc-tab-scroller__scroll-area mdc-tab-scroller__scroll-area--scroll mdc-tab-scroller--align-center"
        style="margin-bottom: 0px;"
      >
        <div
          class="mdc-tab-scroller__scroll-content"
        >
          <button
            aria-selected="true"
            class="mdc-tab mdc-tab--active mdc-tab--min-width"
            data-tab="mdc-tab-1"
            role="tab"
            tabindex="0"
          >
            <span
              class="mdc-tab__content"
            >
              <span
                class="mdc-tab__text-label"
              >
                Example
              </span>
            </span>
            <span
              class="mdc-tab__ripple"
            />
            <span
              class="mdc-tab-indicator mdc-tab-indicator--active mdc-tab-indicator--fade"
            >
              <span
                class="mdc-tab-indicator__content mdc-tab-indicator__content--underline"
              />
            </span>
          </button>
          <button
            aria-selected="false"
            class="mdc-tab mdc-tab--min-width"
            data-tab="mdc-tab-2"
            role="tab"
            tabindex="-1"
          >
            <span
              class="mdc-tab__content"
            >
              <span
                class="mdc-tab__text-label"
              >
                Source
              </span>
            </span>
            <span
              class="mdc-tab__ripple"
            />
            <span
              class="mdc-tab-indicator mdc-tab-indicator--fade"
            >
              <span
                class="mdc-tab-indicator__content mdc-tab-indicator__content--underline"
              />
            </span>
          </button>
        </div>
      </div>
    </div>
  </div>
  <section
    class=""
  >
    source code
  </section>
  <section
    class="hide"
  >
    <pre
      style="color: rgb(57, 58, 52); font-family: \\"Consolas\\", \\"Bitstream Vera Sans Mono\\", \\"Courier New\\", Courier, monospace; direction: ltr; text-align: left; white-space: pre; word-spacing: normal; word-break: normal; font-size: 0.95em; line-height: 1.2em; tab-size: 4; hyphens: none; padding: 1em; margin: .5em 0px; overflow: auto; border: 1px solid #dddddd; background-color: white;"
    >
      <code
        style="color: rgb(57, 58, 52); font-family: \\"Consolas\\", \\"Bitstream Vera Sans Mono\\", \\"Courier New\\", Courier, monospace; direction: ltr; text-align: left; white-space: pre; word-spacing: normal; word-break: normal; font-size: 0.95em; line-height: 1.2em; tab-size: 4; hyphens: none; float: left; padding-right: 10px;"
      >
        <span
          class="react-syntax-highlighter-line-number"
        >
          1

        </span>
      </code>
      <code
        style="color: rgb(57, 58, 52); font-family: \\"Consolas\\", \\"Bitstream Vera Sans Mono\\", \\"Courier New\\", Courier, monospace; direction: ltr; text-align: left; white-space: pre; word-spacing: normal; word-break: normal; font-size: 0.95em; line-height: 1.2em; tab-size: 4; hyphens: none;"
      >
        source code
      </code>
    </pre>
  </section>
</div>
`;

exports[`component::Example Should match snapshoot scss 1`] = `
<div
  class="example"
>
  <h2
    class="mdc-typography--subtitle1"
  >
    Example title
  </h2>
  <div
    class="mdc-tab-bar mt-tab"
    role="tablist"
  >
    <div
      class="mdc-tab-scroller"
    >
      <div
        class="mdc-tab-scroller__scroll-area mdc-tab-scroller__scroll-area--scroll mdc-tab-scroller--align-center"
        style="margin-bottom: 0px;"
      >
        <div
          class="mdc-tab-scroller__scroll-content"
        >
          <button
            aria-selected="true"
            class="mdc-tab mdc-tab--active mdc-tab--min-width"
            data-tab="mdc-tab-3"
            role="tab"
            tabindex="0"
          >
            <span
              class="mdc-tab__content"
            >
              <span
                class="mdc-tab__text-label"
              >
                Example
              </span>
            </span>
            <span
              class="mdc-tab__ripple"
            />
            <span
              class="mdc-tab-indicator mdc-tab-indicator--active mdc-tab-indicator--fade"
            >
              <span
                class="mdc-tab-indicator__content mdc-tab-indicator__content--underline"
              />
            </span>
          </button>
          <button
            aria-selected="false"
            class="mdc-tab mdc-tab--min-width"
            data-tab="mdc-tab-4"
            role="tab"
            tabindex="-1"
          >
            <span
              class="mdc-tab__content"
            >
              <span
                class="mdc-tab__text-label"
              >
                Source
              </span>
            </span>
            <span
              class="mdc-tab__ripple"
            />
            <span
              class="mdc-tab-indicator mdc-tab-indicator--fade"
            >
              <span
                class="mdc-tab-indicator__content mdc-tab-indicator__content--underline"
              />
            </span>
          </button>
        </div>
      </div>
    </div>
  </div>
  <section
    class=""
  >
    source code
  </section>
  <section
    class="hide"
  >
    <pre
      style="color: rgb(57, 58, 52); font-family: \\"Consolas\\", \\"Bitstream Vera Sans Mono\\", \\"Courier New\\", Courier, monospace; direction: ltr; text-align: left; white-space: pre; word-spacing: normal; word-break: normal; font-size: 0.95em; line-height: 1.2em; tab-size: 4; hyphens: none; padding: 1em; margin: .5em 0px; overflow: auto; border: 1px solid #dddddd; background-color: white;"
    >
      <code
        style="color: rgb(57, 58, 52); font-family: \\"Consolas\\", \\"Bitstream Vera Sans Mono\\", \\"Courier New\\", Courier, monospace; direction: ltr; text-align: left; white-space: pre; word-spacing: normal; word-break: normal; font-size: 0.95em; line-height: 1.2em; tab-size: 4; hyphens: none; float: left; padding-right: 10px;"
      >
        <span
          class="react-syntax-highlighter-line-number"
        >
          1

        </span>
      </code>
      <code
        style="color: rgb(57, 58, 52); font-family: \\"Consolas\\", \\"Bitstream Vera Sans Mono\\", \\"Courier New\\", Courier, monospace; direction: ltr; text-align: left; white-space: pre; word-spacing: normal; word-break: normal; font-size: 0.95em; line-height: 1.2em; tab-size: 4; hyphens: none;"
      >
        source code
      </code>
    </pre>
    <pre
      style="color: rgb(57, 58, 52); font-family: \\"Consolas\\", \\"Bitstream Vera Sans Mono\\", \\"Courier New\\", Courier, monospace; direction: ltr; text-align: left; white-space: pre; word-spacing: normal; word-break: normal; font-size: 0.95em; line-height: 1.2em; tab-size: 4; hyphens: none; padding: 1em; margin: .5em 0px; overflow: auto; border: 1px solid #dddddd; background-color: white;"
    >
      <code
        style="color: rgb(57, 58, 52); font-family: \\"Consolas\\", \\"Bitstream Vera Sans Mono\\", \\"Courier New\\", Courier, monospace; direction: ltr; text-align: left; white-space: pre; word-spacing: normal; word-break: normal; font-size: 0.95em; line-height: 1.2em; tab-size: 4; hyphens: none; float: left; padding-right: 10px;"
      >
        <span
          class="react-syntax-highlighter-line-number"
        >
          1

        </span>
      </code>
      <code
        style="color: rgb(57, 58, 52); font-family: \\"Consolas\\", \\"Bitstream Vera Sans Mono\\", \\"Courier New\\", Courier, monospace; direction: ltr; text-align: left; white-space: pre; word-spacing: normal; word-break: normal; font-size: 0.95em; line-height: 1.2em; tab-size: 4; hyphens: none;"
      >
        scss code
      </code>
    </pre>
  </section>
</div>
`;
