// Jest Snapshot v1, https://goo.gl/fbAQLP

exports[`component::DataTableContent Should match snapshoot 1`] = `
<table>
  <tbody
    class="mdc-data-table__content"
  >
    <tr>
      <td>
        Test
      </td>
    </tr>
  </tbody>
</table>
`;
