// Jest Snapshot v1, https://goo.gl/fbAQLP

exports[`example::FilterChip Should match snapshoot 1`] = `
<div
  class="example"
>
  <h2
    class="mdc-typography--subtitle1"
  >
    Filter chips
  </h2>
  <div
    class="mdc-tab-bar mt-tab"
    role="tablist"
  >
    <div
      class="mdc-tab-scroller"
    >
      <div
        class="mdc-tab-scroller__scroll-area mdc-tab-scroller__scroll-area--scroll mdc-tab-scroller--align-center"
        style="margin-bottom: 0px;"
      >
        <div
          class="mdc-tab-scroller__scroll-content"
        >
          <button
            aria-selected="true"
            class="mdc-tab mdc-tab--active mdc-tab--min-width"
            data-tab="mdc-tab-1"
            role="tab"
            tabindex="0"
          >
            <span
              class="mdc-tab__content"
            >
              <span
                class="mdc-tab__text-label"
              >
                Example
              </span>
            </span>
            <span
              class="mdc-tab__ripple"
            />
            <span
              class="mdc-tab-indicator mdc-tab-indicator--active mdc-tab-indicator--fade"
            >
              <span
                class="mdc-tab-indicator__content mdc-tab-indicator__content--underline"
              />
            </span>
          </button>
          <button
            aria-selected="false"
            class="mdc-tab mdc-tab--min-width"
            data-tab="mdc-tab-2"
            role="tab"
            tabindex="-1"
          >
            <span
              class="mdc-tab__content"
            >
              <span
                class="mdc-tab__text-label"
              >
                Source
              </span>
            </span>
            <span
              class="mdc-tab__ripple"
            />
            <span
              class="mdc-tab-indicator mdc-tab-indicator--fade"
            >
              <span
                class="mdc-tab-indicator__content mdc-tab-indicator__content--underline"
              />
            </span>
          </button>
        </div>
      </div>
    </div>
  </div>
  <section
    class=""
  >
    <section>
      <h1
        class="mdc-typography--subtitle1"
      />
      No leading icon
      <div
        class="mdc-chip-set mdc-chip-set--filter"
      >
        <button
          aria-checked="true"
          class="mdc-chip mdc-chip--selected"
          id="mdc-chip-1"
          type="button"
        >
          <span
            class="mdc-chip__checkmark"
          >
            <svg
              class="mdc-chip__checkmark-svg"
              viewBox="-2 -3 30 30"
            >
              <path
                class="mdc-chip__checkmark-path"
                d="M1.73,12.91 8.1,19.28 22.79,4.59"
                fill="none"
                stroke="black"
              />
            </svg>
          </span>
          <span
            class="mdc-chip__text"
          >
            Tops
          </span>
        </button>
        <button
          aria-checked="true"
          class="mdc-chip mdc-chip--selected"
          id="mdc-chip-2"
          type="button"
        >
          <span
            class="mdc-chip__checkmark"
          >
            <svg
              class="mdc-chip__checkmark-svg"
              viewBox="-2 -3 30 30"
            >
              <path
                class="mdc-chip__checkmark-path"
                d="M1.73,12.91 8.1,19.28 22.79,4.59"
                fill="none"
                stroke="black"
              />
            </svg>
          </span>
          <span
            class="mdc-chip__text"
          >
            Bootoms
          </span>
        </button>
        <button
          class="mdc-chip"
          id="mdc-chip-3"
          type="button"
        >
          <span
            class="mdc-chip__checkmark"
          >
            <svg
              class="mdc-chip__checkmark-svg"
              viewBox="-2 -3 30 30"
            >
              <path
                class="mdc-chip__checkmark-path"
                d="M1.73,12.91 8.1,19.28 22.79,4.59"
                fill="none"
                stroke="black"
              />
            </svg>
          </span>
          <span
            class="mdc-chip__text"
          >
            Shoes
          </span>
        </button>
        <button
          class="mdc-chip"
          id="mdc-chip-4"
          type="button"
        >
          <span
            class="mdc-chip__checkmark"
          >
            <svg
              class="mdc-chip__checkmark-svg"
              viewBox="-2 -3 30 30"
            >
              <path
                class="mdc-chip__checkmark-path"
                d="M1.73,12.91 8.1,19.28 22.79,4.59"
                fill="none"
                stroke="black"
              />
            </svg>
          </span>
          <span
            class="mdc-chip__text"
          >
            Accessories
          </span>
        </button>
      </div>
    </section>
    <section>
      <h1
        class="mdc-typography--subtitle1"
      />
      With leading icon
      <div
        class="mdc-chip-set mdc-chip-set--filter"
      >
        <button
          aria-checked="true"
          class="mdc-chip mdc-chip--selected"
          id="mdc-chip-5"
          type="button"
        >
          <i
            class="mdc-chip__icon mdc-chip__icon--leading material-icons"
          >
            face
          </i>
          <span
            class="mdc-chip__checkmark"
          >
            <svg
              class="mdc-chip__checkmark-svg"
              viewBox="-2 -3 30 30"
            >
              <path
                class="mdc-chip__checkmark-path"
                d="M1.73,12.91 8.1,19.28 22.79,4.59"
                fill="none"
                stroke="black"
              />
            </svg>
          </span>
          <span
            class="mdc-chip__text"
          >
            Tops
          </span>
        </button>
        <button
          aria-checked="true"
          class="mdc-chip mdc-chip--selected"
          id="mdc-chip-6"
          type="button"
        >
          <i
            class="mdc-chip__icon mdc-chip__icon--leading material-icons"
          >
            face
          </i>
          <span
            class="mdc-chip__checkmark"
          >
            <svg
              class="mdc-chip__checkmark-svg"
              viewBox="-2 -3 30 30"
            >
              <path
                class="mdc-chip__checkmark-path"
                d="M1.73,12.91 8.1,19.28 22.79,4.59"
                fill="none"
                stroke="black"
              />
            </svg>
          </span>
          <span
            class="mdc-chip__text"
          >
            Bootoms
          </span>
        </button>
        <button
          class="mdc-chip"
          id="mdc-chip-7"
          type="button"
        >
          <i
            class="mdc-chip__icon mdc-chip__icon--leading material-icons"
          >
            face
          </i>
          <span
            class="mdc-chip__checkmark"
          >
            <svg
              class="mdc-chip__checkmark-svg"
              viewBox="-2 -3 30 30"
            >
              <path
                class="mdc-chip__checkmark-path"
                d="M1.73,12.91 8.1,19.28 22.79,4.59"
                fill="none"
                stroke="black"
              />
            </svg>
          </span>
          <span
            class="mdc-chip__text"
          >
            Shoes
          </span>
        </button>
        <button
          class="mdc-chip"
          id="mdc-chip-8"
          type="button"
        >
          <i
            class="mdc-chip__icon mdc-chip__icon--leading material-icons"
          >
            face
          </i>
          <span
            class="mdc-chip__checkmark"
          >
            <svg
              class="mdc-chip__checkmark-svg"
              viewBox="-2 -3 30 30"
            >
              <path
                class="mdc-chip__checkmark-path"
                d="M1.73,12.91 8.1,19.28 22.79,4.59"
                fill="none"
                stroke="black"
              />
            </svg>
          </span>
          <span
            class="mdc-chip__text"
          >
            Accessories
          </span>
        </button>
      </div>
    </section>
  </section>
  <section
    class="hide"
  >
    <pre
      style="color: rgb(57, 58, 52); font-family: \\"Consolas\\", \\"Bitstream Vera Sans Mono\\", \\"Courier New\\", Courier, monospace; direction: ltr; text-align: left; white-space: pre; word-spacing: normal; word-break: normal; font-size: 0.95em; line-height: 1.2em; tab-size: 4; hyphens: none; padding: 1em; margin: .5em 0px; overflow: auto; border: 1px solid #dddddd; background-color: white;"
    >
      <code
        style="color: rgb(57, 58, 52); font-family: \\"Consolas\\", \\"Bitstream Vera Sans Mono\\", \\"Courier New\\", Courier, monospace; direction: ltr; text-align: left; white-space: pre; word-spacing: normal; word-break: normal; font-size: 0.95em; line-height: 1.2em; tab-size: 4; hyphens: none; float: left; padding-right: 10px;"
      >
        <span
          class="react-syntax-highlighter-line-number"
        >
          1

        </span>
        <span
          class="react-syntax-highlighter-line-number"
        >
          2

        </span>
        <span
          class="react-syntax-highlighter-line-number"
        >
          3

        </span>
        <span
          class="react-syntax-highlighter-line-number"
        >
          4

        </span>
        <span
          class="react-syntax-highlighter-line-number"
        >
          5

        </span>
        <span
          class="react-syntax-highlighter-line-number"
        >
          6

        </span>
        <span
          class="react-syntax-highlighter-line-number"
        >
          7

        </span>
        <span
          class="react-syntax-highlighter-line-number"
        >
          8

        </span>
        <span
          class="react-syntax-highlighter-line-number"
        >
          9

        </span>
        <span
          class="react-syntax-highlighter-line-number"
        >
          10

        </span>
        <span
          class="react-syntax-highlighter-line-number"
        >
          11

        </span>
        <span
          class="react-syntax-highlighter-line-number"
        >
          12

        </span>
        <span
          class="react-syntax-highlighter-line-number"
        >
          13

        </span>
        <span
          class="react-syntax-highlighter-line-number"
        >
          14

        </span>
        <span
          class="react-syntax-highlighter-line-number"
        >
          15

        </span>
        <span
          class="react-syntax-highlighter-line-number"
        >
          16

        </span>
        <span
          class="react-syntax-highlighter-line-number"
        >
          17

        </span>
        <span
          class="react-syntax-highlighter-line-number"
        >
          18

        </span>
        <span
          class="react-syntax-highlighter-line-number"
        >
          19

        </span>
        <span
          class="react-syntax-highlighter-line-number"
        >
          20

        </span>
        <span
          class="react-syntax-highlighter-line-number"
        >
          21

        </span>
        <span
          class="react-syntax-highlighter-line-number"
        >
          22

        </span>
        <span
          class="react-syntax-highlighter-line-number"
        >
          23

        </span>
        <span
          class="react-syntax-highlighter-line-number"
        >
          24

        </span>
        <span
          class="react-syntax-highlighter-line-number"
        >
          25

        </span>
        <span
          class="react-syntax-highlighter-line-number"
        >
          26

        </span>
        <span
          class="react-syntax-highlighter-line-number"
        >
          27

        </span>
        <span
          class="react-syntax-highlighter-line-number"
        >
          28

        </span>
        <span
          class="react-syntax-highlighter-line-number"
        >
          29

        </span>
        <span
          class="react-syntax-highlighter-line-number"
        >
          30

        </span>
        <span
          class="react-syntax-highlighter-line-number"
        >
          31

        </span>
        <span
          class="react-syntax-highlighter-line-number"
        >
          32

        </span>
        <span
          class="react-syntax-highlighter-line-number"
        >
          33

        </span>
        <span
          class="react-syntax-highlighter-line-number"
        >
          34

        </span>
        <span
          class="react-syntax-highlighter-line-number"
        >
          35

        </span>
        <span
          class="react-syntax-highlighter-line-number"
        >
          36

        </span>
        <span
          class="react-syntax-highlighter-line-number"
        >
          37

        </span>
        <span
          class="react-syntax-highlighter-line-number"
        >
          38

        </span>
        <span
          class="react-syntax-highlighter-line-number"
        >
          39

        </span>
        <span
          class="react-syntax-highlighter-line-number"
        >
          40

        </span>
        <span
          class="react-syntax-highlighter-line-number"
        >
          41

        </span>
        <span
          class="react-syntax-highlighter-line-number"
        >
          42

        </span>
        <span
          class="react-syntax-highlighter-line-number"
        >
          43

        </span>
        <span
          class="react-syntax-highlighter-line-number"
        >
          44

        </span>
        <span
          class="react-syntax-highlighter-line-number"
        >
          45

        </span>
        <span
          class="react-syntax-highlighter-line-number"
        >
          46

        </span>
        <span
          class="react-syntax-highlighter-line-number"
        >
          47

        </span>
        <span
          class="react-syntax-highlighter-line-number"
        >
          48

        </span>
        <span
          class="react-syntax-highlighter-line-number"
        >
          49

        </span>
        <span
          class="react-syntax-highlighter-line-number"
        >
          50

        </span>
        <span
          class="react-syntax-highlighter-line-number"
        >
          51

        </span>
        <span
          class="react-syntax-highlighter-line-number"
        >
          52

        </span>
        <span
          class="react-syntax-highlighter-line-number"
        >
          53

        </span>
        <span
          class="react-syntax-highlighter-line-number"
        >
          54

        </span>
      </code>
      <code
        style="color: rgb(57, 58, 52); font-family: \\"Consolas\\", \\"Bitstream Vera Sans Mono\\", \\"Courier New\\", Courier, monospace; direction: ltr; text-align: left; white-space: pre; word-spacing: normal; word-break: normal; font-size: 0.95em; line-height: 1.2em; tab-size: 4; hyphens: none;"
      >
        <span
          class="token module"
          style="color: rgb(0, 0, 255);"
        >
          import
        </span>
         
        <span
          class="token maybe-class-name"
        >
          React
        </span>
         
        <span
          class="token module"
          style="color: rgb(0, 0, 255);"
        >
          from
        </span>
         
        <span
          class="token"
          style="color: rgb(163, 21, 21);"
        >
          'react'
        </span>
        <span
          class="token"
          style="color: rgb(57, 58, 52);"
        >
          ;
        </span>
        


        <span
          class="token module"
          style="color: rgb(0, 0, 255);"
        >
          import
        </span>
         
        <span
          class="token maybe-class-name"
        >
          Chip
        </span>
         
        <span
          class="token module"
          style="color: rgb(0, 0, 255);"
        >
          from
        </span>
         
        <span
          class="token"
          style="color: rgb(163, 21, 21);"
        >
          'material-toolbox/chip'
        </span>
        <span
          class="token"
          style="color: rgb(57, 58, 52);"
        >
          ;
        </span>
        

        <span
          class="token module"
          style="color: rgb(0, 0, 255);"
        >
          import
        </span>
         
        <span
          class="token maybe-class-name"
        >
          ChipIcon
        </span>
         
        <span
          class="token module"
          style="color: rgb(0, 0, 255);"
        >
          from
        </span>
         
        <span
          class="token"
          style="color: rgb(163, 21, 21);"
        >
          'material-toolbox/chip/Icon'
        </span>
        <span
          class="token"
          style="color: rgb(57, 58, 52);"
        >
          ;
        </span>
        

        <span
          class="token module"
          style="color: rgb(0, 0, 255);"
        >
          import
        </span>
         
        <span
          class="token maybe-class-name"
        >
          ChipSet
        </span>
         
        <span
          class="token module"
          style="color: rgb(0, 0, 255);"
        >
          from
        </span>
         
        <span
          class="token"
          style="color: rgb(163, 21, 21);"
        >
          'material-toolbox/chip/Set'
        </span>
        <span
          class="token"
          style="color: rgb(57, 58, 52);"
        >
          ;
        </span>
        

        <span
          class="token module"
          style="color: rgb(0, 0, 255);"
        >
          import
        </span>
         
        <span
          class="token maybe-class-name"
        >
          Text
        </span>
         
        <span
          class="token module"
          style="color: rgb(0, 0, 255);"
        >
          from
        </span>
         
        <span
          class="token"
          style="color: rgb(163, 21, 21);"
        >
          'material-toolbox/typography/Text'
        </span>
        <span
          class="token"
          style="color: rgb(57, 58, 52);"
        >
          ;
        </span>
        


        <span
          class="token"
          style="color: rgb(0, 0, 255);"
        >
          const
        </span>
         
        <span
          class="token function-variable"
          style="color: rgb(57, 58, 52);"
        >
          <span
            class="token maybe-class-name"
          >
            Filter
          </span>
        </span>
         
        <span
          class="token"
          style="color: rgb(57, 58, 52);"
        >
          =
        </span>
         
        <span
          class="token"
          style="color: rgb(57, 58, 52);"
        >
          (
        </span>
        <span
          class="token"
          style="color: rgb(57, 58, 52);"
        >
          )
        </span>
         
        <span
          class="token arrow"
          style="color: rgb(57, 58, 52);"
        >
          =&gt;
        </span>
         
        <span
          class="token"
          style="color: rgb(57, 58, 52);"
        >
          {
        </span>
        
  
        <span
          class="token"
          style="color: rgb(0, 0, 255);"
        >
          return
        </span>
         
        <span
          class="token"
          style="color: rgb(57, 58, 52);"
        >
          (
        </span>
        
    
        <span
          class="token"
          style="color: rgb(128, 0, 0);"
        >
          <span
            class="token"
            style="color: rgb(128, 0, 0);"
          >
            <span
              class="token"
              style="color: rgb(57, 58, 52);"
            >
              &lt;
            </span>
          </span>
          <span
            class="token"
            style="color: rgb(57, 58, 52);"
          >
            &gt;
          </span>
        </span>
        <span
          class="token plain-text"
        >
          
      
        </span>
        <span
          class="token"
          style="color: rgb(128, 0, 0);"
        >
          <span
            class="token"
            style="color: rgb(128, 0, 0);"
          >
            <span
              class="token"
              style="color: rgb(57, 58, 52);"
            >
              &lt;
            </span>
            section
          </span>
          <span
            class="token"
            style="color: rgb(57, 58, 52);"
          >
            &gt;
          </span>
        </span>
        <span
          class="token plain-text"
        >
          
        
        </span>
        <span
          class="token"
          style="color: rgb(128, 0, 0);"
        >
          <span
            class="token"
            style="color: rgb(128, 0, 0);"
          >
            <span
              class="token"
              style="color: rgb(57, 58, 52);"
            >
              &lt;
            </span>
            <span
              class="token"
              style="color: rgb(43, 145, 175);"
            >
              Text
            </span>
          </span>
           
          <span
            class="token"
            style="color: rgb(255, 0, 0);"
          >
            text
          </span>
          <span
            class="token"
            style="color: rgb(0, 0, 255);"
          >
            <span
              class="token"
              style="color: rgb(57, 58, 52);"
            >
              =
            </span>
            <span
              class="token"
              style="color: rgb(57, 58, 52);"
            >
              "
            </span>
            subtitle1
            <span
              class="token"
              style="color: rgb(57, 58, 52);"
            >
              "
            </span>
          </span>
           
          <span
            class="token"
            style="color: rgb(255, 0, 0);"
          >
            as
          </span>
          <span
            class="token"
            style="color: rgb(0, 0, 255);"
          >
            <span
              class="token"
              style="color: rgb(57, 58, 52);"
            >
              =
            </span>
            <span
              class="token"
              style="color: rgb(57, 58, 52);"
            >
              "
            </span>
            h1
            <span
              class="token"
              style="color: rgb(57, 58, 52);"
            >
              "
            </span>
          </span>
           
          <span
            class="token"
            style="color: rgb(57, 58, 52);"
          >
            /&gt;
          </span>
        </span>
        <span
          class="token plain-text"
        >
          
        No leading icon
        
        </span>
        <span
          class="token"
          style="color: rgb(128, 0, 0);"
        >
          <span
            class="token"
            style="color: rgb(128, 0, 0);"
          >
            <span
              class="token"
              style="color: rgb(57, 58, 52);"
            >
              &lt;
            </span>
            <span
              class="token"
              style="color: rgb(43, 145, 175);"
            >
              ChipSet
            </span>
          </span>
           
          <span
            class="token"
            style="color: rgb(255, 0, 0);"
          >
            filter
          </span>
          <span
            class="token"
            style="color: rgb(57, 58, 52);"
          >
            &gt;
          </span>
        </span>
        <span
          class="token plain-text"
        >
          
          
        </span>
        <span
          class="token"
          style="color: rgb(128, 0, 0);"
        >
          <span
            class="token"
            style="color: rgb(128, 0, 0);"
          >
            <span
              class="token"
              style="color: rgb(57, 58, 52);"
            >
              &lt;
            </span>
            <span
              class="token"
              style="color: rgb(43, 145, 175);"
            >
              Chip
            </span>
          </span>
           
          <span
            class="token"
            style="color: rgb(255, 0, 0);"
          >
            filter
          </span>
           
          <span
            class="token"
            style="color: rgb(255, 0, 0);"
          >
            label
          </span>
          <span
            class="token"
            style="color: rgb(0, 0, 255);"
          >
            <span
              class="token"
              style="color: rgb(57, 58, 52);"
            >
              =
            </span>
            <span
              class="token"
              style="color: rgb(57, 58, 52);"
            >
              "
            </span>
            Tops
            <span
              class="token"
              style="color: rgb(57, 58, 52);"
            >
              "
            </span>
          </span>
           
          <span
            class="token"
            style="color: rgb(255, 0, 0);"
          >
            defaultSelected
          </span>
           
          <span
            class="token"
            style="color: rgb(57, 58, 52);"
          >
            /&gt;
          </span>
        </span>
        <span
          class="token plain-text"
        >
          
          
        </span>
        <span
          class="token"
          style="color: rgb(128, 0, 0);"
        >
          <span
            class="token"
            style="color: rgb(128, 0, 0);"
          >
            <span
              class="token"
              style="color: rgb(57, 58, 52);"
            >
              &lt;
            </span>
            <span
              class="token"
              style="color: rgb(43, 145, 175);"
            >
              Chip
            </span>
          </span>
           
          <span
            class="token"
            style="color: rgb(255, 0, 0);"
          >
            filter
          </span>
           
          <span
            class="token"
            style="color: rgb(255, 0, 0);"
          >
            label
          </span>
          <span
            class="token"
            style="color: rgb(0, 0, 255);"
          >
            <span
              class="token"
              style="color: rgb(57, 58, 52);"
            >
              =
            </span>
            <span
              class="token"
              style="color: rgb(57, 58, 52);"
            >
              "
            </span>
            Bootoms
            <span
              class="token"
              style="color: rgb(57, 58, 52);"
            >
              "
            </span>
          </span>
           
          <span
            class="token"
            style="color: rgb(255, 0, 0);"
          >
            defaultSelected
          </span>
           
          <span
            class="token"
            style="color: rgb(57, 58, 52);"
          >
            /&gt;
          </span>
        </span>
        <span
          class="token plain-text"
        >
          
          
        </span>
        <span
          class="token"
          style="color: rgb(128, 0, 0);"
        >
          <span
            class="token"
            style="color: rgb(128, 0, 0);"
          >
            <span
              class="token"
              style="color: rgb(57, 58, 52);"
            >
              &lt;
            </span>
            <span
              class="token"
              style="color: rgb(43, 145, 175);"
            >
              Chip
            </span>
          </span>
           
          <span
            class="token"
            style="color: rgb(255, 0, 0);"
          >
            filter
          </span>
           
          <span
            class="token"
            style="color: rgb(255, 0, 0);"
          >
            label
          </span>
          <span
            class="token"
            style="color: rgb(0, 0, 255);"
          >
            <span
              class="token"
              style="color: rgb(57, 58, 52);"
            >
              =
            </span>
            <span
              class="token"
              style="color: rgb(57, 58, 52);"
            >
              "
            </span>
            Shoes
            <span
              class="token"
              style="color: rgb(57, 58, 52);"
            >
              "
            </span>
          </span>
           
          <span
            class="token"
            style="color: rgb(57, 58, 52);"
          >
            /&gt;
          </span>
        </span>
        <span
          class="token plain-text"
        >
          
          
        </span>
        <span
          class="token"
          style="color: rgb(128, 0, 0);"
        >
          <span
            class="token"
            style="color: rgb(128, 0, 0);"
          >
            <span
              class="token"
              style="color: rgb(57, 58, 52);"
            >
              &lt;
            </span>
            <span
              class="token"
              style="color: rgb(43, 145, 175);"
            >
              Chip
            </span>
          </span>
           
          <span
            class="token"
            style="color: rgb(255, 0, 0);"
          >
            filter
          </span>
           
          <span
            class="token"
            style="color: rgb(255, 0, 0);"
          >
            label
          </span>
          <span
            class="token"
            style="color: rgb(0, 0, 255);"
          >
            <span
              class="token"
              style="color: rgb(57, 58, 52);"
            >
              =
            </span>
            <span
              class="token"
              style="color: rgb(57, 58, 52);"
            >
              "
            </span>
            Accessories
            <span
              class="token"
              style="color: rgb(57, 58, 52);"
            >
              "
            </span>
          </span>
           
          <span
            class="token"
            style="color: rgb(57, 58, 52);"
          >
            /&gt;
          </span>
        </span>
        <span
          class="token plain-text"
        >
          
        
        </span>
        <span
          class="token"
          style="color: rgb(128, 0, 0);"
        >
          <span
            class="token"
            style="color: rgb(128, 0, 0);"
          >
            <span
              class="token"
              style="color: rgb(57, 58, 52);"
            >
              &lt;/
            </span>
            <span
              class="token"
              style="color: rgb(43, 145, 175);"
            >
              ChipSet
            </span>
          </span>
          <span
            class="token"
            style="color: rgb(57, 58, 52);"
          >
            &gt;
          </span>
        </span>
        <span
          class="token plain-text"
        >
          
      
        </span>
        <span
          class="token"
          style="color: rgb(128, 0, 0);"
        >
          <span
            class="token"
            style="color: rgb(128, 0, 0);"
          >
            <span
              class="token"
              style="color: rgb(57, 58, 52);"
            >
              &lt;/
            </span>
            section
          </span>
          <span
            class="token"
            style="color: rgb(57, 58, 52);"
          >
            &gt;
          </span>
        </span>
        <span
          class="token plain-text"
        >
          

      
        </span>
        <span
          class="token"
          style="color: rgb(128, 0, 0);"
        >
          <span
            class="token"
            style="color: rgb(128, 0, 0);"
          >
            <span
              class="token"
              style="color: rgb(57, 58, 52);"
            >
              &lt;
            </span>
            section
          </span>
          <span
            class="token"
            style="color: rgb(57, 58, 52);"
          >
            &gt;
          </span>
        </span>
        <span
          class="token plain-text"
        >
          
        
        </span>
        <span
          class="token"
          style="color: rgb(128, 0, 0);"
        >
          <span
            class="token"
            style="color: rgb(128, 0, 0);"
          >
            <span
              class="token"
              style="color: rgb(57, 58, 52);"
            >
              &lt;
            </span>
            <span
              class="token"
              style="color: rgb(43, 145, 175);"
            >
              Text
            </span>
          </span>
           
          <span
            class="token"
            style="color: rgb(255, 0, 0);"
          >
            text
          </span>
          <span
            class="token"
            style="color: rgb(0, 0, 255);"
          >
            <span
              class="token"
              style="color: rgb(57, 58, 52);"
            >
              =
            </span>
            <span
              class="token"
              style="color: rgb(57, 58, 52);"
            >
              "
            </span>
            subtitle1
            <span
              class="token"
              style="color: rgb(57, 58, 52);"
            >
              "
            </span>
          </span>
           
          <span
            class="token"
            style="color: rgb(255, 0, 0);"
          >
            as
          </span>
          <span
            class="token"
            style="color: rgb(0, 0, 255);"
          >
            <span
              class="token"
              style="color: rgb(57, 58, 52);"
            >
              =
            </span>
            <span
              class="token"
              style="color: rgb(57, 58, 52);"
            >
              "
            </span>
            h1
            <span
              class="token"
              style="color: rgb(57, 58, 52);"
            >
              "
            </span>
          </span>
           
          <span
            class="token"
            style="color: rgb(57, 58, 52);"
          >
            /&gt;
          </span>
        </span>
        <span
          class="token plain-text"
        >
          
        With leading icon
        
        </span>
        <span
          class="token"
          style="color: rgb(128, 0, 0);"
        >
          <span
            class="token"
            style="color: rgb(128, 0, 0);"
          >
            <span
              class="token"
              style="color: rgb(57, 58, 52);"
            >
              &lt;
            </span>
            <span
              class="token"
              style="color: rgb(43, 145, 175);"
            >
              ChipSet
            </span>
          </span>
           
          <span
            class="token"
            style="color: rgb(255, 0, 0);"
          >
            filter
          </span>
          <span
            class="token"
            style="color: rgb(57, 58, 52);"
          >
            &gt;
          </span>
        </span>
        <span
          class="token plain-text"
        >
          
          
        </span>
        <span
          class="token"
          style="color: rgb(128, 0, 0);"
        >
          <span
            class="token"
            style="color: rgb(128, 0, 0);"
          >
            <span
              class="token"
              style="color: rgb(57, 58, 52);"
            >
              &lt;
            </span>
            <span
              class="token"
              style="color: rgb(43, 145, 175);"
            >
              Chip
            </span>
          </span>
          
            
          <span
            class="token"
            style="color: rgb(255, 0, 0);"
          >
            filter
          </span>
          
            
          <span
            class="token"
            style="color: rgb(255, 0, 0);"
          >
            leadingIcon
          </span>
          <span
            class="token script language-javascript"
          >
            <span
              class="token script-punctuation"
              style="color: rgb(57, 58, 52);"
            >
              =
            </span>
            <span
              class="token"
              style="color: rgb(57, 58, 52);"
            >
              {
            </span>
            <span
              class="token"
              style="color: rgb(128, 0, 0);"
            >
              <span
                class="token"
                style="color: rgb(128, 0, 0);"
              >
                <span
                  class="token"
                  style="color: rgb(57, 58, 52);"
                >
                  &lt;
                </span>
                <span
                  class="token"
                  style="color: rgb(43, 145, 175);"
                >
                  ChipIcon
                </span>
              </span>
               
              <span
                class="token"
                style="color: rgb(255, 0, 0);"
              >
                className
              </span>
              <span
                class="token"
                style="color: rgb(0, 0, 255);"
              >
                <span
                  class="token"
                  style="color: rgb(57, 58, 52);"
                >
                  =
                </span>
                <span
                  class="token"
                  style="color: rgb(57, 58, 52);"
                >
                  "
                </span>
                material-icons
                <span
                  class="token"
                  style="color: rgb(57, 58, 52);"
                >
                  "
                </span>
              </span>
              <span
                class="token"
                style="color: rgb(57, 58, 52);"
              >
                &gt;
              </span>
            </span>
            <span
              class="token plain-text"
            >
              face
            </span>
            <span
              class="token"
              style="color: rgb(128, 0, 0);"
            >
              <span
                class="token"
                style="color: rgb(128, 0, 0);"
              >
                <span
                  class="token"
                  style="color: rgb(57, 58, 52);"
                >
                  &lt;/
                </span>
                <span
                  class="token"
                  style="color: rgb(43, 145, 175);"
                >
                  ChipIcon
                </span>
              </span>
              <span
                class="token"
                style="color: rgb(57, 58, 52);"
              >
                &gt;
              </span>
            </span>
            <span
              class="token"
              style="color: rgb(57, 58, 52);"
            >
              }
            </span>
          </span>
          
            
          <span
            class="token"
            style="color: rgb(255, 0, 0);"
          >
            label
          </span>
          <span
            class="token"
            style="color: rgb(0, 0, 255);"
          >
            <span
              class="token"
              style="color: rgb(57, 58, 52);"
            >
              =
            </span>
            <span
              class="token"
              style="color: rgb(57, 58, 52);"
            >
              "
            </span>
            Tops
            <span
              class="token"
              style="color: rgb(57, 58, 52);"
            >
              "
            </span>
          </span>
          
            
          <span
            class="token"
            style="color: rgb(255, 0, 0);"
          >
            defaultSelected
          </span>
          
          
          <span
            class="token"
            style="color: rgb(57, 58, 52);"
          >
            /&gt;
          </span>
        </span>
        <span
          class="token plain-text"
        >
          
          
        </span>
        <span
          class="token"
          style="color: rgb(128, 0, 0);"
        >
          <span
            class="token"
            style="color: rgb(128, 0, 0);"
          >
            <span
              class="token"
              style="color: rgb(57, 58, 52);"
            >
              &lt;
            </span>
            <span
              class="token"
              style="color: rgb(43, 145, 175);"
            >
              Chip
            </span>
          </span>
          
            
          <span
            class="token"
            style="color: rgb(255, 0, 0);"
          >
            filter
          </span>
          
            
          <span
            class="token"
            style="color: rgb(255, 0, 0);"
          >
            leadingIcon
          </span>
          <span
            class="token script language-javascript"
          >
            <span
              class="token script-punctuation"
              style="color: rgb(57, 58, 52);"
            >
              =
            </span>
            <span
              class="token"
              style="color: rgb(57, 58, 52);"
            >
              {
            </span>
            <span
              class="token"
              style="color: rgb(128, 0, 0);"
            >
              <span
                class="token"
                style="color: rgb(128, 0, 0);"
              >
                <span
                  class="token"
                  style="color: rgb(57, 58, 52);"
                >
                  &lt;
                </span>
                <span
                  class="token"
                  style="color: rgb(43, 145, 175);"
                >
                  ChipIcon
                </span>
              </span>
               
              <span
                class="token"
                style="color: rgb(255, 0, 0);"
              >
                className
              </span>
              <span
                class="token"
                style="color: rgb(0, 0, 255);"
              >
                <span
                  class="token"
                  style="color: rgb(57, 58, 52);"
                >
                  =
                </span>
                <span
                  class="token"
                  style="color: rgb(57, 58, 52);"
                >
                  "
                </span>
                material-icons
                <span
                  class="token"
                  style="color: rgb(57, 58, 52);"
                >
                  "
                </span>
              </span>
              <span
                class="token"
                style="color: rgb(57, 58, 52);"
              >
                &gt;
              </span>
            </span>
            <span
              class="token plain-text"
            >
              face
            </span>
            <span
              class="token"
              style="color: rgb(128, 0, 0);"
            >
              <span
                class="token"
                style="color: rgb(128, 0, 0);"
              >
                <span
                  class="token"
                  style="color: rgb(57, 58, 52);"
                >
                  &lt;/
                </span>
                <span
                  class="token"
                  style="color: rgb(43, 145, 175);"
                >
                  ChipIcon
                </span>
              </span>
              <span
                class="token"
                style="color: rgb(57, 58, 52);"
              >
                &gt;
              </span>
            </span>
            <span
              class="token"
              style="color: rgb(57, 58, 52);"
            >
              }
            </span>
          </span>
          
            
          <span
            class="token"
            style="color: rgb(255, 0, 0);"
          >
            label
          </span>
          <span
            class="token"
            style="color: rgb(0, 0, 255);"
          >
            <span
              class="token"
              style="color: rgb(57, 58, 52);"
            >
              =
            </span>
            <span
              class="token"
              style="color: rgb(57, 58, 52);"
            >
              "
            </span>
            Bootoms
            <span
              class="token"
              style="color: rgb(57, 58, 52);"
            >
              "
            </span>
          </span>
          
            
          <span
            class="token"
            style="color: rgb(255, 0, 0);"
          >
            defaultSelected
          </span>
          
          
          <span
            class="token"
            style="color: rgb(57, 58, 52);"
          >
            /&gt;
          </span>
        </span>
        <span
          class="token plain-text"
        >
          
          
        </span>
        <span
          class="token"
          style="color: rgb(128, 0, 0);"
        >
          <span
            class="token"
            style="color: rgb(128, 0, 0);"
          >
            <span
              class="token"
              style="color: rgb(57, 58, 52);"
            >
              &lt;
            </span>
            <span
              class="token"
              style="color: rgb(43, 145, 175);"
            >
              Chip
            </span>
          </span>
          
            
          <span
            class="token"
            style="color: rgb(255, 0, 0);"
          >
            filter
          </span>
          
            
          <span
            class="token"
            style="color: rgb(255, 0, 0);"
          >
            leadingIcon
          </span>
          <span
            class="token script language-javascript"
          >
            <span
              class="token script-punctuation"
              style="color: rgb(57, 58, 52);"
            >
              =
            </span>
            <span
              class="token"
              style="color: rgb(57, 58, 52);"
            >
              {
            </span>
            <span
              class="token"
              style="color: rgb(128, 0, 0);"
            >
              <span
                class="token"
                style="color: rgb(128, 0, 0);"
              >
                <span
                  class="token"
                  style="color: rgb(57, 58, 52);"
                >
                  &lt;
                </span>
                <span
                  class="token"
                  style="color: rgb(43, 145, 175);"
                >
                  ChipIcon
                </span>
              </span>
               
              <span
                class="token"
                style="color: rgb(255, 0, 0);"
              >
                className
              </span>
              <span
                class="token"
                style="color: rgb(0, 0, 255);"
              >
                <span
                  class="token"
                  style="color: rgb(57, 58, 52);"
                >
                  =
                </span>
                <span
                  class="token"
                  style="color: rgb(57, 58, 52);"
                >
                  "
                </span>
                material-icons
                <span
                  class="token"
                  style="color: rgb(57, 58, 52);"
                >
                  "
                </span>
              </span>
              <span
                class="token"
                style="color: rgb(57, 58, 52);"
              >
                &gt;
              </span>
            </span>
            <span
              class="token plain-text"
            >
              face
            </span>
            <span
              class="token"
              style="color: rgb(128, 0, 0);"
            >
              <span
                class="token"
                style="color: rgb(128, 0, 0);"
              >
                <span
                  class="token"
                  style="color: rgb(57, 58, 52);"
                >
                  &lt;/
                </span>
                <span
                  class="token"
                  style="color: rgb(43, 145, 175);"
                >
                  ChipIcon
                </span>
              </span>
              <span
                class="token"
                style="color: rgb(57, 58, 52);"
              >
                &gt;
              </span>
            </span>
            <span
              class="token"
              style="color: rgb(57, 58, 52);"
            >
              }
            </span>
          </span>
          
            
          <span
            class="token"
            style="color: rgb(255, 0, 0);"
          >
            label
          </span>
          <span
            class="token"
            style="color: rgb(0, 0, 255);"
          >
            <span
              class="token"
              style="color: rgb(57, 58, 52);"
            >
              =
            </span>
            <span
              class="token"
              style="color: rgb(57, 58, 52);"
            >
              "
            </span>
            Shoes
            <span
              class="token"
              style="color: rgb(57, 58, 52);"
            >
              "
            </span>
          </span>
          
          
          <span
            class="token"
            style="color: rgb(57, 58, 52);"
          >
            /&gt;
          </span>
        </span>
        <span
          class="token plain-text"
        >
          
          
        </span>
        <span
          class="token"
          style="color: rgb(128, 0, 0);"
        >
          <span
            class="token"
            style="color: rgb(128, 0, 0);"
          >
            <span
              class="token"
              style="color: rgb(57, 58, 52);"
            >
              &lt;
            </span>
            <span
              class="token"
              style="color: rgb(43, 145, 175);"
            >
              Chip
            </span>
          </span>
          
            
          <span
            class="token"
            style="color: rgb(255, 0, 0);"
          >
            filter
          </span>
          
            
          <span
            class="token"
            style="color: rgb(255, 0, 0);"
          >
            leadingIcon
          </span>
          <span
            class="token script language-javascript"
          >
            <span
              class="token script-punctuation"
              style="color: rgb(57, 58, 52);"
            >
              =
            </span>
            <span
              class="token"
              style="color: rgb(57, 58, 52);"
            >
              {
            </span>
            <span
              class="token"
              style="color: rgb(128, 0, 0);"
            >
              <span
                class="token"
                style="color: rgb(128, 0, 0);"
              >
                <span
                  class="token"
                  style="color: rgb(57, 58, 52);"
                >
                  &lt;
                </span>
                <span
                  class="token"
                  style="color: rgb(43, 145, 175);"
                >
                  ChipIcon
                </span>
              </span>
               
              <span
                class="token"
                style="color: rgb(255, 0, 0);"
              >
                className
              </span>
              <span
                class="token"
                style="color: rgb(0, 0, 255);"
              >
                <span
                  class="token"
                  style="color: rgb(57, 58, 52);"
                >
                  =
                </span>
                <span
                  class="token"
                  style="color: rgb(57, 58, 52);"
                >
                  "
                </span>
                material-icons
                <span
                  class="token"
                  style="color: rgb(57, 58, 52);"
                >
                  "
                </span>
              </span>
              <span
                class="token"
                style="color: rgb(57, 58, 52);"
              >
                &gt;
              </span>
            </span>
            <span
              class="token plain-text"
            >
              face
            </span>
            <span
              class="token"
              style="color: rgb(128, 0, 0);"
            >
              <span
                class="token"
                style="color: rgb(128, 0, 0);"
              >
                <span
                  class="token"
                  style="color: rgb(57, 58, 52);"
                >
                  &lt;/
                </span>
                <span
                  class="token"
                  style="color: rgb(43, 145, 175);"
                >
                  ChipIcon
                </span>
              </span>
              <span
                class="token"
                style="color: rgb(57, 58, 52);"
              >
                &gt;
              </span>
            </span>
            <span
              class="token"
              style="color: rgb(57, 58, 52);"
            >
              }
            </span>
          </span>
          
            
          <span
            class="token"
            style="color: rgb(255, 0, 0);"
          >
            label
          </span>
          <span
            class="token"
            style="color: rgb(0, 0, 255);"
          >
            <span
              class="token"
              style="color: rgb(57, 58, 52);"
            >
              =
            </span>
            <span
              class="token"
              style="color: rgb(57, 58, 52);"
            >
              "
            </span>
            Accessories
            <span
              class="token"
              style="color: rgb(57, 58, 52);"
            >
              "
            </span>
          </span>
          
          
          <span
            class="token"
            style="color: rgb(57, 58, 52);"
          >
            /&gt;
          </span>
        </span>
        <span
          class="token plain-text"
        >
          
        
        </span>
        <span
          class="token"
          style="color: rgb(128, 0, 0);"
        >
          <span
            class="token"
            style="color: rgb(128, 0, 0);"
          >
            <span
              class="token"
              style="color: rgb(57, 58, 52);"
            >
              &lt;/
            </span>
            <span
              class="token"
              style="color: rgb(43, 145, 175);"
            >
              ChipSet
            </span>
          </span>
          <span
            class="token"
            style="color: rgb(57, 58, 52);"
          >
            &gt;
          </span>
        </span>
        <span
          class="token plain-text"
        >
          
      
        </span>
        <span
          class="token"
          style="color: rgb(128, 0, 0);"
        >
          <span
            class="token"
            style="color: rgb(128, 0, 0);"
          >
            <span
              class="token"
              style="color: rgb(57, 58, 52);"
            >
              &lt;/
            </span>
            section
          </span>
          <span
            class="token"
            style="color: rgb(57, 58, 52);"
          >
            &gt;
          </span>
        </span>
        <span
          class="token plain-text"
        >
          
    
        </span>
        <span
          class="token"
          style="color: rgb(128, 0, 0);"
        >
          <span
            class="token"
            style="color: rgb(128, 0, 0);"
          >
            <span
              class="token"
              style="color: rgb(57, 58, 52);"
            >
              &lt;/
            </span>
          </span>
          <span
            class="token"
            style="color: rgb(57, 58, 52);"
          >
            &gt;
          </span>
        </span>
        
  
        <span
          class="token"
          style="color: rgb(57, 58, 52);"
        >
          )
        </span>
        <span
          class="token"
          style="color: rgb(57, 58, 52);"
        >
          ;
        </span>
        

        <span
          class="token"
          style="color: rgb(57, 58, 52);"
        >
          }
        </span>
        <span
          class="token"
          style="color: rgb(57, 58, 52);"
        >
          ;
        </span>
        


        <span
          class="token module"
          style="color: rgb(0, 0, 255);"
        >
          export
        </span>
         
        <span
          class="token module"
          style="color: rgb(0, 0, 255);"
        >
          default
        </span>
         
        <span
          class="token maybe-class-name"
        >
          Filter
        </span>
        <span
          class="token"
          style="color: rgb(57, 58, 52);"
        >
          ;
        </span>
      </code>
    </pre>
  </section>
</div>
`;
