// Jest Snapshot v1, https://goo.gl/fbAQLP

exports[`component::List Should match snapshoot 1`] = `
<nav
  class="mdc-list"
  href="#"
  role="list"
>
  Item
</nav>
`;

exports[`component::List Should match snapshoot avatarList 1`] = `
<ul
  class="mdc-list mdc-list--avatar-list"
  role="list"
>
  List content
</ul>
`;

exports[`component::List Should match snapshoot dense 1`] = `
<ul
  class="mdc-list mdc-list--dense"
  role="list"
>
  List content
</ul>
`;

exports[`component::List Should match snapshoot group role 1`] = `
<ul
  aria-orientation="vertical"
  class="mdc-list"
  role="group"
>
  List content
</ul>
`;

exports[`component::List Should match snapshoot listbox role 1`] = `
<ul
  aria-orientation="vertical"
  class="mdc-list"
  role="listbox"
>
  List content
</ul>
`;

exports[`component::List Should match snapshoot nonInterative 1`] = `
<ul
  class="mdc-list mdc-list--non-interactive"
  role="list"
>
  List content
</ul>
`;

exports[`component::List Should match snapshoot radiogroup role 1`] = `
<ul
  aria-orientation="vertical"
  class="mdc-list"
  role="radiogroup"
>
  List content
</ul>
`;

exports[`component::List Should match snapshoot twoLines 1`] = `
<ul
  class="mdc-list mdc-list--two-line"
  role="list"
>
  List content
</ul>
`;

exports[`component::List Should match snapshoot vertical 1`] = `
<ul
  class="mdc-list"
  role="list"
>
  List content
</ul>
`;

exports[`component::List Should match snapshoot wrapFocus 1`] = `
<ul
  class="mdc-list"
  role="list"
>
  List content
</ul>
`;
